  0
SECTION
  2
HEADER
  9
$ACADVER
  1
AC1021
  9
$ACADMAINTVER
 70
    25
  9
$DWGCODEPAGE
  3
ANSI_1252
  9
$INSBASE
 10
0.0
 20
0.0
 30
0.0
  9
$EXTMIN
 10
25.84
 20
53.25
 30
0.0
  9
$EXTMAX
 10
336.125
 20
110.0
 30
0.0
  9
$LIMMIN
 10
25.84
 20
53.25
  9
$LIMMAX
 10
336.125
 20
110.0
  9
$ORTHOMODE
 70
     0
  9
$REGENMODE
 70
     1
  9
$FILLMODE
 70
     1
  9
$QTEXTMODE
 70
     0
  9
$MIRRTEXT
 70
     1
  9
$LTSCALE
 40
1.0
  9
$ATTMODE
 70
     1
  9
$TEXTSIZE
 40
2.5
  9
$TRACEWID
 40
1.0
  9
$TEXTSTYLE
  7
Standard
  9
$CLAYER
  8
0
  9
$CELTYPE
  6
ByLayer
  9
$CECOLOR
 62
   256
  9
$CELTSCALE
 40
1.0
  9
$DISPSILH
 70
     0
  9
$DIMSCALE
 40
1.0
  9
$DIMASZ
 40
2.5
  9
$DIMEXO
 40
0.625
  9
$DIMDLI
 40
3.75
  9
$DIMRND
 40
0.0
  9
$DIMDLE
 40
0.0
  9
$DIMEXE
 40
1.25
  9
$DIMTP
 40
0.0
  9
$DIMTM
 40
0.0
  9
$DIMTXT
 40
2.5
  9
$DIMCEN
 40
2.5
  9
$DIMTSZ
 40
0.0
  9
$DIMTOL
 70
     0
  9
$DIMLIM
 70
     0
  9
$DIMTIH
 70
     0
  9
$DIMTOH
 70
     0
  9
$DIMSE1
 70
     0
  9
$DIMSE2
 70
     0
  9
$DIMTAD
 70
     1
  9
$DIMZIN
 70
     8
  9
$DIMBLK
  1

  9
$DIMASO
 70
     1
  9
$DIMSHO
 70
     1
  9
$DIMPOST
  1

  9
$DIMAPOST
  1

  9
$DIMALT
 70
     0
  9
$DIMALTD
 70
     3
  9
$DIMALTF
 40
0.03937007874016
  9
$DIMLFAC
 40
1.0
  9
$DIMTOFL
 70
     1
  9
$DIMTVP
 40
0.0
  9
$DIMTIX
 70
     0
  9
$DIMSOXD
 70
     0
  9
$DIMSAH
 70
     0
  9
$DIMBLK1
  1

  9
$DIMBLK2
  1

  9
$DIMSTYLE
  2
ISO-25
  9
$DIMCLRD
 70
     0
  9
$DIMCLRE
 70
     0
  9
$DIMCLRT
 70
     0
  9
$DIMTFAC
 40
1.0
  9
$DIMGAP
 40
0.625
  9
$DIMJUST
 70
     0
  9
$DIMSD1
 70
     0
  9
$DIMSD2
 70
     0
  9
$DIMTOLJ
 70
     0
  9
$DIMTZIN
 70
     8
  9
$DIMALTZ
 70
     0
  9
$DIMALTTZ
 70
     0
  9
$DIMUPT
 70
     0
  9
$DIMDEC
 70
     2
  9
$DIMTDEC
 70
     2
  9
$DIMALTU
 70
     2
  9
$DIMALTTD
 70
     3
  9
$DIMTXSTY
  7
Standard
  9
$DIMAUNIT
 70
     0
  9
$DIMADEC
 70
     0
  9
$DIMALTRND
 40
0.0
  9
$DIMAZIN
 70
     0
  9
$DIMDSEP
 70
    44
  9
$DIMATFIT
 70
     3
  9
$DIMFRAC
 70
     0
  9
$DIMLDRBLK
  1

  9
$DIMLUNIT
 70
     2
  9
$DIMLWD
 70
    -2
  9
$DIMLWE
 70
    -2
  9
$DIMTMOVE
 70
     0
  9
$DIMFXL
 40
1.0
  9
$DIMFXLON
 70
     0
  9
$DIMJOGANG
 40
0.7853981633974483
  9
$DIMTFILL
 70
     0
  9
$DIMTFILLCLR
 70
     0
  9
$DIMARCSYM
 70
     0
  9
$DIMLTYPE
  6

  9
$DIMLTEX1
  6

  9
$DIMLTEX2
  6

  9
$LUNITS
 70
     2
  9
$LUPREC
 70
     4
  9
$SKETCHINC
 40
1.0
  9
$FILLETRAD
 40
10.0
  9
$AUNITS
 70
     0
  9
$AUPREC
 70
     0
  9
$MENU
  1
.
  9
$ELEVATION
 40
0.0
  9
$PELEVATION
 40
0.0
  9
$THICKNESS
 40
0.0
  9
$LIMCHECK
 70
     0
  9
$CHAMFERA
 40
0.0
  9
$CHAMFERB
 40
0.0
  9
$CHAMFERC
 40
0.0
  9
$CHAMFERD
 40
0.0
  9
$SKPOLY
 70
     0
  9
$TDCREATE
 40
2458584.957706065
  9
$TDUCREATE
 40
2458584.874372731
  9
$TDUPDATE
 40
2458584.957706609
  9
$TDUUPDATE
 40
2458584.874373275
  9
$TDINDWG
 40
0.0000000116
  9
$TDUSRTIMER
 40
0.0000000116
  9
$USRTIMER
 70
     1
  9
$ANGBASE
 50
0.0
  9
$ANGDIR
 70
     0
  9
$PDMODE
 70
     0
  9
$PDSIZE
 40
0.0
  9
$PLINEWID
 40
0.0
  9
$SPLFRAME
 70
     0
  9
$SPLINETYPE
 70
     6
  9
$SPLINESEGS
 70
     8
  9
$HANDSEED
  5
112
  9
$SURFTAB1
 70
     6
  9
$SURFTAB2
 70
     6
  9
$SURFTYPE
 70
     6
  9
$SURFU
 70
     6
  9
$SURFV
 70
     6
  9
$UCSBASE
  2

  9
$UCSNAME
  2

  9
$UCSORG
 10
0.0
 20
0.0
 30
0.0
  9
$UCSXDIR
 10
1.0
 20
0.0
 30
0.0
  9
$UCSYDIR
 10
0.0
 20
1.0
 30
0.0
  9
$UCSORTHOREF
  2

  9
$UCSORTHOVIEW
 70
     0
  9
$UCSORGTOP
 10
0.0
 20
0.0
 30
0.0
  9
$UCSORGBOTTOM
 10
0.0
 20
0.0
 30
0.0
  9
$UCSORGLEFT
 10
0.0
 20
0.0
 30
0.0
  9
$UCSORGRIGHT
 10
0.0
 20
0.0
 30
0.0
  9
$UCSORGFRONT
 10
0.0
 20
0.0
 30
0.0
  9
$UCSORGBACK
 10
0.0
 20
0.0
 30
0.0
  9
$PUCSBASE
  2

  9
$PUCSNAME
  2

  9
$PUCSORG
 10
0.0
 20
0.0
 30
0.0
  9
$PUCSXDIR
 10
1.0
 20
0.0
 30
0.0
  9
$PUCSYDIR
 10
0.0
 20
1.0
 30
0.0
  9
$PUCSORTHOREF
  2

  9
$PUCSORTHOVIEW
 70
     0
  9
$PUCSORGTOP
 10
0.0
 20
0.0
 30
0.0
  9
$PUCSORGBOTTOM
 10
0.0
 20
0.0
 30
0.0
  9
$PUCSORGLEFT
 10
0.0
 20
0.0
 30
0.0
  9
$PUCSORGRIGHT
 10
0.0
 20
0.0
 30
0.0
  9
$PUCSORGFRONT
 10
0.0
 20
0.0
 30
0.0
  9
$PUCSORGBACK
 10
0.0
 20
0.0
 30
0.0
  9
$USERI1
 70
     0
  9
$USERI2
 70
     0
  9
$USERI3
 70
     0
  9
$USERI4
 70
     0
  9
$USERI5
 70
     0
  9
$USERR1
 40
0.0
  9
$USERR2
 40
0.0
  9
$USERR3
 40
0.0
  9
$USERR4
 40
0.0
  9
$USERR5
 40
0.0
  9
$WORLDVIEW
 70
     1
  9
$SHADEDGE
 70
     3
  9
$SHADEDIF
 70
    70
  9
$TILEMODE
 70
     1
  9
$MAXACTVP
 70
    64
  9
$PINSBASE
 10
0.0
 20
0.0
 30
0.0
  9
$PLIMCHECK
 70
     0
  9
$PEXTMIN
 10
25.84
 20
53.25
 30
0.0
  9
$PEXTMAX
 10
336.125
 20
110.0
 30
0.0
  9
$PLIMMIN
 10
25.84
 20
53.25
  9
$PLIMMAX
 10
336.125
 20
110.0
  9
$UNITMODE
 70
     0
  9
$VISRETAIN
 70
     1
  9
$PLINEGEN
 70
     0
  9
$PSLTSCALE
 70
     1
  9
$TREEDEPTH
 70
  3020
  9
$CMLSTYLE
  2
Standard
  9
$CMLJUST
 70
     0
  9
$CMLSCALE
 40
20.0
  9
$PROXYGRAPHICS
 70
     1
  9
$MEASUREMENT
 70
     1
  9
$CELWEIGHT
370
    -1
  9
$ENDCAPS
280
     0
  9
$JOINSTYLE
280
     0
  9
$LWDISPLAY
290
     1
  9
$INSUNITS
 70
     4
  9
$HYPERLINKBASE
  1

  9
$STYLESHEET
  1

  9
$XEDIT
290
     1
  9
$CEPSNTYPE
380
     0
  9
$PSTYLEMODE
290
     1
  9
$FINGERPRINTGUID
  2
{22F1F0F3-1C7D-419D-A796-9A35AACC225C}
  9
$VERSIONGUID
  2
{FAEB1C32-E019-11D5-929B-00C0DF256EC4}
  9
$EXTNAMES
290
     1
  9
$PSVPSCALE
 40
0.0
  9
$OLESTARTUP
290
     0
  9
$SORTENTS
280
   127
  9
$INDEXCTL
280
     0
  9
$HIDETEXT
280
     1
  9
$XCLIPFRAME
290
     0
  9
$HALOGAP
280
     0
  9
$OBSCOLOR
 70
   257
  9
$OBSLTYPE
280
     0
  9
$INTERSECTIONDISPLAY
280
     0
  9
$INTERSECTIONCOLOR
 70
   257
  9
$DIMASSOC
280
     2
  9
$PROJECTNAME
  1

  9
$CAMERADISPLAY
290
     0
  9
$LENSLENGTH
 40
50.0
  9
$CAMERAHEIGHT
 40
0.0
  9
$STEPSPERSEC
 40
2.0
  9
$STEPSIZE
 40
6.0
  9
$3DDWFPREC
 40
2.0
  9
$PSOLWIDTH
 40
5.0
  9
$PSOLHEIGHT
 40
80.0
  9
$LOFTANG1
 40
1.570796326794897
  9
$LOFTANG2
 40
1.570796326794897
  9
$LOFTMAG1
 40
0.0
  9
$LOFTMAG2
 40
0.0
  9
$LOFTPARAM
 70
     7
  9
$LOFTNORMALS
280
     1
  9
$LATITUDE
 40
37.795
  9
$LONGITUDE
 40
-122.394
  9
$NORTHDIRECTION
 40
0.0
  9
$TIMEZONE
 70
 -8000
  9
$LIGHTGLYPHDISPLAY
280
     1
  9
$TILEMODELIGHTSYNCH
280
     1
  9
$CMATERIAL
347
44
  9
$SOLIDHIST
280
     0
  9
$SHOWHIST
280
     1
  9
$DWFFRAME
280
     2
  9
$DGNFRAME
280
     2
  9
$REALWORLDSCALE
290
     1
  9
$INTERFERECOLOR
 62
   256
  9
$CSHADOW
280
     0
  9
$SHADOWPLANELOCATION
 40
0.0
  0
ENDSEC
  0
SECTION
  2
CLASSES
  0
CLASS
  1
ACDBDICTIONARYWDFLT
  2
AcDbDictionaryWithDefault
  3
ObjectDBX Classes
 90
        0
 91
        4
280
     0
281
     0
  0
CLASS
  1
VISUALSTYLE
  2
AcDbVisualStyle
  3
ObjectDBX Classes
 90
     4095
 91
        4
280
     0
281
     0
  0
CLASS
  1
MATERIAL
  2
AcDbMaterial
  3
ObjectDBX Classes
 90
     1153
 91
        4
280
     0
281
     0
  0
CLASS
  1
SCALE
  2
AcDbScale
  3
ObjectDBX Classes
 90
     1153
 91
        4
280
     0
281
     0
  0
CLASS
  1
TABLESTYLE
  2
AcDbTableStyle
  3
ObjectDBX Classes
 90
     4095
 91
        4
280
     0
281
     0
  0
CLASS
  1
MLEADERSTYLE
  2
AcDbMLeaderStyle
  3
ACDB_MLEADERSTYLE_CLASS
 90
     4095
 91
        4
280
     0
281
     0
  0
CLASS
  1
SUN
  2
AcDbSun
  3
SCENEOE
 90
     1153
 91
        4
280
     0
281
     0
  0
CLASS
  1
RASTERVARIABLES
  2
AcDbRasterVariables
  3
ISM
 90
        0
 91
        4
280
     0
281
     0
  0
CLASS
  1
DICTIONARYVAR
  2
AcDbDictionaryVar
  3
ObjectDBX Classes
 90
        0
 91
        4
280
     0
281
     0
  0
CLASS
  1
CELLSTYLEMAP
  2
AcDbCellStyleMap
  3
ObjectDBX Classes
 90
     1152
 91
        4
280
     0
281
     0
  0
ENDSEC
  0
SECTION
  2
TABLES
  0
TABLE
  2
VPORT
  5
8
330
0
100
AcDbSymbolTable
 70
     1
  0
VPORT
  5
29
330
8
100
AcDbSymbolTableRecord
100
AcDbViewportTableRecord
  2
*Active
 70
     0
 10
0.0
 20
0.0
 11
1.0
 21
1.0
 12
180.9825
 22
81.625
 13
0.0
 23
0.0
 14
10.0
 24
10.0
 15
10.0
 25
10.0
 16
0.0
 26
0.0
 36
1.0
 17
0.0
 27
0.0
 37
0.0
 40
235.0643939393939
 41
1.32
 42
50.0
 43
0.0
 44
0.0
 50
0.0
 51
0.0
 71
     0
 72
   100
 73
     1
 74
     3
 75
     0
 76
     0
 77
     0
 78
     0
281
     0
 65
     1
110
0.0
120
0.0
130
0.0
111
1.0
121
0.0
131
0.0
112
0.0
122
1.0
132
0.0
 79
     0
146
0.0
348
2F
 60
     3
 61
     5
292
     1
282
     1
141
0.0
142
0.0
 63
   250
361
6D
  0
ENDTAB
  0
TABLE
  2
LTYPE
  5
5
330
0
100
AcDbSymbolTable
 70
     6
  0
LTYPE
  5
14
330
5
100
AcDbSymbolTableRecord
100
AcDbLinetypeTableRecord
  2
ByBlock
 70
     0
  3

 72
    65
 73
     0
 40
0.0
  0
LTYPE
  5
15
330
5
100
AcDbSymbolTableRecord
100
AcDbLinetypeTableRecord
  2
ByLayer
 70
     0
  3

 72
    65
 73
     0
 40
0.0
  0
LTYPE
  5
16
330
5
100
AcDbSymbolTableRecord
100
AcDbLinetypeTableRecord
  2
Continuous
 70
     0
  3
Solid line
 72
    65
 73
     0
 40
0.0
  0
LTYPE
  5
71
330
5
100
AcDbSymbolTableRecord
100
AcDbLinetypeTableRecord
  2
EPL_DASH
 70
     0
  3

 72
    65
 73
     2
 40
1.0
 49
0.5
 74
     0
 49
-0.5
 74
     0
  0
LTYPE
  5
72
330
5
100
AcDbSymbolTableRecord
100
AcDbLinetypeTableRecord
  2
EPL_DASHDOT
 70
     0
  3

 72
    65
 73
     4
 40
1.0
 49
0.8
 74
     0
 49
-0.1
 74
     0
 49
0.0
 74
     0
 49
-0.1
 74
     0
  0
LTYPE
  5
77
330
5
100
AcDbSymbolTableRecord
100
AcDbLinetypeTableRecord
  2
EPL_DASH2
 70
     0
  3

 72
    65
 73
     2
 40
1.0
 49
0.66
 74
     0
 49
-0.34
 74
     0
  0
LTYPE
  5
78
330
5
100
AcDbSymbolTableRecord
100
AcDbLinetypeTableRecord
  2
EPL_DASHDOTDOT
 70
     0
  3

 72
    65
 73
     6
 40
0.9999999999999999
 49
0.5
 74
     0
 49
-0.1
 74
     0
 49
0.1
 74
     0
 49
-0.1
 74
     0
 49
0.1
 74
     0
 49
-0.1
 74
     0
  0
LTYPE
  5
7A
330
5
100
AcDbSymbolTableRecord
100
AcDbLinetypeTableRecord
  2
EPL_DOT
 70
     0
  3

 72
    65
 73
     4
 40
1.0
 49
0.0
 74
     0
 49
-0.5
 74
     0
 49
0.0
 74
     0
 49
-0.5
 74
     0
  0
ENDTAB
  0
TABLE
  2
LAYER
  5
2
330
0
100
AcDbSymbolTable
 70
    29
  0
LAYER
  5
10
330
2
100
AcDbSymbolTableRecord
100
AcDbLayerTableRecord
  2
0
 70
     0
 62
     7
  6
Continuous
370
    -3
390
F
347
46
  0
LAYER
  5
6F
330
2
100
AcDbSymbolTableRecord
100
AcDbLayerTableRecord
  2
EPLAN_Graphic
 70
     0
 62
   240
  6
Continuous
370
    50
390
F
347
46
1001
AcAecLayerStandard
1000

1000
Grafik.Allgemein
  0
LAYER
  5
73
330
2
100
AcDbSymbolTableRecord
100
AcDbLayerTableRecord
  2
EPLAN_Symbol
 70
     0
 62
     7
  6
Continuous
370
    25
390
F
347
46
1001
AcAecLayerStandard
1000

1000
Symbolgrafik.Allgemein
  0
LAYER
  5
74
330
2
100
AcDbSymbolTableRecord
100
AcDbLayerTableRecord
  2
EPLAN_Property
 70
     0
 62
     1
  6
Continuous
370
    25
390
F
347
46
1001
AcAecLayerStandard
1000

1000
Eigenschaftsplatzierung.Stranganschlusssymbole.Verbindungsstranganschlüsse
  0
LAYER
  5
75
330
2
100
AcDbSymbolTableRecord
100
AcDbLayerTableRecord
  2
EPLAN_Invisible
 70
     0
 62
    -7
  6
Continuous
290
     0
370
    25
390
F
347
46
1001
AcAecLayerStandard
1000

1000
Grafik.Unsichtbar
  0
LAYER
  5
76
330
2
100
AcDbSymbolTableRecord
100
AcDbLayerTableRecord
  2
EPLAN_Text
 70
     0
 62
    73
  6
Continuous
370
    35
390
F
347
46
1001
AcAecLayerStandard
1000

1000
Sondertexte.Platzhaltertexte
  0
LAYER
  5
79
330
2
100
AcDbSymbolTableRecord
100
AcDbLayerTableRecord
  2
EPLAN_3D
 70
     0
 62
   253
  6
Continuous
370
    50
390
F
347
46
1001
AcAecLayerStandard
1000

1000
3D-Grafik.Schrank
  0
LAYER
  5
7B
330
2
100
AcDbSymbolTableRecord
100
AcDbLayerTableRecord
  2
EPLAN810
 70
     0
 62
     7
  6
Continuous
370
    50
390
F
347
46
1001
AcAecLayerStandard
1000

1000
3D-Grafik.Thermische Auslegung.Kaltluftpfeil
  0
LAYER
  5
7C
330
2
100
AcDbSymbolTableRecord
100
AcDbLayerTableRecord
  2
EPLAN811
 70
     0
 62
     1
  6
Continuous
370
    50
390
F
347
46
1001
AcAecLayerStandard
1000

1000
3D-Grafik.Thermische Auslegung.Warmluftpfeil
  0
LAYER
  5
7D
330
2
100
AcDbSymbolTableRecord
100
AcDbLayerTableRecord
  2
EPLAN812
 70
     0
 62
   131
  6
Continuous
370
    50
390
F
347
46
1001
AcAecLayerStandard
1000

1000
3D-Grafik.Thermische Auslegung.Verlustleistungsdichte sehr gering
  0
LAYER
  5
7E
330
2
100
AcDbSymbolTableRecord
100
AcDbLayerTableRecord
  2
EPLAN813
 70
     0
 62
    40
  6
Continuous
370
    50
390
F
347
46
1001
AcAecLayerStandard
1000

1000
3D-Grafik.Thermische Auslegung.Verlustleistungsdichte gering
  0
LAYER
  5
7F
330
2
100
AcDbSymbolTableRecord
100
AcDbLayerTableRecord
  2
EPLAN814
 70
     0
 62
    30
  6
Continuous
370
    50
390
F
347
46
1001
AcAecLayerStandard
1000

1000
3D-Grafik.Thermische Auslegung.Verlustleistungsdichte mittel
  0
LAYER
  5
80
330
2
100
AcDbSymbolTableRecord
100
AcDbLayerTableRecord
  2
EPLAN815
 70
     0
 62
    20
  6
Continuous
370
    50
390
F
347
46
1001
AcAecLayerStandard
1000

1000
3D-Grafik.Thermische Auslegung.Verlustleistungsdichte hoch
  0
LAYER
  5
81
330
2
100
AcDbSymbolTableRecord
100
AcDbLayerTableRecord
  2
EPLAN816
 70
     0
 62
    10
  6
Continuous
370
    50
390
F
347
46
1001
AcAecLayerStandard
1000

1000
3D-Grafik.Thermische Auslegung.Verlustleistungsdichte sehr hoch
  0
LAYER
  5
82
330
2
100
AcDbSymbolTableRecord
100
AcDbLayerTableRecord
  2
EPLAN817
 70
     0
 62
   150
  6
Continuous
370
    50
390
F
347
46
1001
AcAecLayerStandard
1000

1000
3D-Grafik.Thermische Auslegung.Optimal klimatisierter Bereich
  0
LAYER
  5
83
330
2
100
AcDbSymbolTableRecord
100
AcDbLayerTableRecord
  2
EPLAN818
 70
     0
 62
     4
  6
Continuous
370
    50
390
F
347
46
1001
AcAecLayerStandard
1000

1000
3D-Grafik.Thermische Auslegung.Lüftungstechnischer Sperrraum
  0
LAYER
  5
84
330
2
100
AcDbSymbolTableRecord
100
AcDbLayerTableRecord
  2
EPLAN819
 70
     0
 62
   240
  6
Continuous
370
   200
390
F
347
46
1001
AcAecLayerStandard
1000

1000
Symbolgrafik.Verbindungssymbole.Autoconnecting.P&ID.EN1861.Rohrleitung, allgemein
  0
LAYER
  5
85
330
2
100
AcDbSymbolTableRecord
100
AcDbLayerTableRecord
  2
EPLAN820
 70
     0
 62
   240
  6
Continuous
370
   100
390
F
347
46
1001
AcAecLayerStandard
1000

1000
Symbolgrafik.Verbindungssymbole.Autoconnecting.P&ID.EN1861.Kältemittel Hauptkreislauf 
  0
LAYER
  5
86
330
2
100
AcDbSymbolTableRecord
100
AcDbLayerTableRecord
  2
EPLAN821
 70
     0
 62
   240
  6
Continuous
370
    50
390
F
347
46
1001
AcAecLayerStandard
1000

1000
Symbolgrafik.Verbindungssymbole.Autoconnecting.P&ID.EN1861.Kältemittel Nebenkreislauf 
  0
LAYER
  5
87
330
2
100
AcDbSymbolTableRecord
100
AcDbLayerTableRecord
  2
EPLAN822
 70
     0
 62
   240
  6
EPL_DASHDOT
370
   100
390
F
347
46
1001
AcAecLayerStandard
1000

1000
Symbolgrafik.Verbindungssymbole.Autoconnecting.P&ID.EN1861.Lösungen
  0
LAYER
  5
88
330
2
100
AcDbSymbolTableRecord
100
AcDbLayerTableRecord
  2
EPLAN823
 70
     0
 62
   240
  6
EPL_DASH2
370
    50
390
F
347
46
1001
AcAecLayerStandard
1000

1000
Symbolgrafik.Verbindungssymbole.Autoconnecting.P&ID.EN1861.Kühlwasser
  0
LAYER
  5
89
330
2
100
AcDbSymbolTableRecord
100
AcDbLayerTableRecord
  2
EPLAN824
 70
     0
 62
   240
  6
EPL_DASHDOT
370
    25
390
F
347
46
1001
AcAecLayerStandard
1000

1000
Symbolgrafik.Verbindungssymbole.Autoconnecting.P&ID.EN1861.Sonstige Stoffe
  0
LAYER
  5
8A
330
2
100
AcDbSymbolTableRecord
100
AcDbLayerTableRecord
  2
EPLAN825
 70
     0
 62
   240
  6
Continuous
370
   100
390
F
347
46
1001
AcAecLayerStandard
1000

1000
Symbolgrafik.Verbindungssymbole.Autoconnecting.P&ID.EN1861.Kühlender oder erwärmender Stoff
  0
LAYER
  5
8B
330
2
100
AcDbSymbolTableRecord
100
AcDbLayerTableRecord
  2
EPLAN826
 70
     0
 62
  -240
  6
Continuous
290
     0
370
    35
390
F
347
46
1001
AcAecLayerStandard
1000

1000
Eigenschaftsplatzierung.Anschlussbezeichnungen.P&ID
  0
LAYER
  5
8C
330
2
100
AcDbSymbolTableRecord
100
AcDbLayerTableRecord
  2
EPLAN827
 70
     0
 62
    -7
  6
Continuous
290
     0
370
    35
390
F
347
46
1001
AcAecLayerStandard
1000

1000
Eigenschaftsplatzierung.Anschlussbeschreibungen.P&ID
  0
LAYER
  5
8D
330
2
100
AcDbSymbolTableRecord
100
AcDbLayerTableRecord
  2
Sichtbar (ISO)
 70
     0
 62
     7
  6
Continuous
370
    35
390
F
347
46
1001
AcAecLayerStandard
1000

1000
Sichtbar (ISO)
  0
LAYER
  5
8E
330
2
100
AcDbSymbolTableRecord
100
AcDbLayerTableRecord
  2
Rahmen (ISO)
 70
     0
 62
     7
  6
Continuous
370
    35
390
F
347
46
1001
AcAecLayerStandard
1000

1000
Rahmen (ISO)
  0
LAYER
  5
8F
330
2
100
AcDbSymbolTableRecord
100
AcDbLayerTableRecord
  2
Rahmen 1 (ISO)
 70
     0
 62
     7
  6
Continuous
370
    18
390
F
347
46
1001
AcAecLayerStandard
1000

1000
Rahmen 1 (ISO)
  0
LAYER
  5
90
330
2
100
AcDbSymbolTableRecord
100
AcDbLayerTableRecord
  2
SICHTBAR__ISO_
 70
     0
 62
     7
  6
Continuous
370
    25
390
F
347
46
1001
AcAecLayerStandard
1000

1000
SICHTBAR__ISO_
  0
ENDTAB
  0
TABLE
  2
STYLE
  5
3
330
0
100
AcDbSymbolTable
 70
     2
  0
STYLE
  5
11
330
3
100
AcDbSymbolTableRecord
100
AcDbTextStyleTableRecord
  2
Standard
 70
     0
 40
0.0
 41
1.0
 50
0.0
 71
     0
 42
2.5
  3
txt
  4

  0
STYLE
  5
94
330
3
100
AcDbSymbolTableRecord
100
AcDbTextStyleTableRecord
  2
Tahoma
 70
     0
 40
0.0
 41
1.0
 50
0.0
 71
     0
 42
2.5
  3

  4

1001
ACAD
1000
Tahoma
1071
      256
  0
ENDTAB
  0
TABLE
  2
VIEW
  5
6
330
0
100
AcDbSymbolTable
 70
     0
  0
ENDTAB
  0
TABLE
  2
UCS
  5
7
330
0
100
AcDbSymbolTable
 70
     0
  0
ENDTAB
  0
TABLE
  2
APPID
  5
9
330
0
100
AcDbSymbolTable
 70
     3
  0
APPID
  5
12
330
9
100
AcDbSymbolTableRecord
100
AcDbRegAppTableRecord
  2
ACAD
 70
     0
  0
APPID
  5
70
330
9
100
AcDbSymbolTableRecord
100
AcDbRegAppTableRecord
  2
AcAecLayerStandard
 70
     0
  0
APPID
  5
10B
330
9
100
AcDbSymbolTableRecord
100
AcDbRegAppTableRecord
  2
ACAD_MLEADERVER
 70
     0
  0
ENDTAB
  0
TABLE
  2
DIMSTYLE
  5
A
330
0
100
AcDbSymbolTable
 70
     1
100
AcDbDimStyleTable
  0
DIMSTYLE
105
27
330
A
100
AcDbSymbolTableRecord
100
AcDbDimStyleTableRecord
  2
ISO-25
 70
     0
 41
2.5
 42
0.625
 43
3.75
 44
1.25
 73
     0
 74
     0
 77
     1
 78
     8
140
2.5
141
2.5
143
0.03937007874016
147
0.625
171
     3
172
     1
178
     0
271
     2
272
     2
274
     3
278
    44
283
     0
284
     8
340
11
  0
ENDTAB
  0
TABLE
  2
BLOCK_RECORD
  5
1
330
0
100
AcDbSymbolTable
 70
     3
  0
BLOCK_RECORD
  5
1F
330
1
100
AcDbSymbolTableRecord
100
AcDbBlockTableRecord
  2
*Model_Space
340
22
 70
     0
280
     1
281
     0
  0
BLOCK_RECORD
  5
1B
330
1
100
AcDbSymbolTableRecord
100
AcDbBlockTableRecord
  2
*Paper_Space
340
1E
 70
     0
280
     1
281
     0
  0
BLOCK_RECORD
  5
23
330
1
100
AcDbSymbolTableRecord
100
AcDbBlockTableRecord
  2
*Paper_Space0
340
26
 70
     0
280
     1
281
     0
  0
BLOCK_RECORD
  5
9B
330
1
100
AcDbSymbolTableRecord
100
AcDbBlockTableRecord
  2
EPLSYM_LibrarySPECIAL_Symbol1_Variant0_Placement1
340
0
102
{BLKREFS
331
A5
102
}
 70
     0
280
     1
281
     0
  0
BLOCK_RECORD
  5
B3
330
1
100
AcDbSymbolTableRecord
100
AcDbBlockTableRecord
  2
EPLSYM_LibrarySPECIAL_Symbol34_Variant0_Placement1
340
0
102
{BLKREFS
331
BF
331
C7
331
CF
331
D7
331
DF
331
E7
331
EF
331
F7
331
FF
102
}
 70
     0
280
     1
281
     0
  0
ENDTAB
  0
ENDSEC
  0
SECTION
  2
BLOCKS
  0
BLOCK
  5
20
330
1F
100
AcDbEntity
  8
0
100
AcDbBlockBegin
  2
*Model_Space
 70
     0
 10
0.0
 20
0.0
 30
0.0
  3
*Model_Space
  1

  0
ENDBLK
  5
21
330
1F
100
AcDbEntity
  8
0
100
AcDbBlockEnd
  0
BLOCK
  5
1C
330
1B
100
AcDbEntity
 67
     1
  8
0
100
AcDbBlockBegin
  2
*Paper_Space
 70
     0
 10
0.0
 20
0.0
 30
0.0
  3
*Paper_Space
  1

  0
ENDBLK
  5
1D
330
1B
100
AcDbEntity
 67
     1
  8
0
100
AcDbBlockEnd
  0
BLOCK
  5
24
330
23
100
AcDbEntity
  8
0
100
AcDbBlockBegin
  2
*Paper_Space0
 70
     0
 10
0.0
 20
0.0
 30
0.0
  3
*Paper_Space0
  1

  0
ENDBLK
  5
25
330
23
100
AcDbEntity
  8
0
100
AcDbBlockEnd
  0
BLOCK
  5
9C
330
9B
100
AcDbEntity
  8
0
100
AcDbBlockBegin
  2
EPLSYM_LibrarySPECIAL_Symbol1_Variant0_Placement1
 70
     2
 10
0.0
 20
0.0
 30
0.0
  3
EPLSYM_LibrarySPECIAL_Symbol1_Variant0_Placement1
  1

  0
ATTDEF
  5
9E
330
9B
100
AcDbEntity
  8
0
 62
     7
100
AcDbText
 10
-17.9475
 20
-3.209000000000001
 30
0.0
 40
2.2575
  1
17_20010
 72
     2
 11
-1.5
 21
-0.9515
 31
0.0
100
AcDbAttributeDefinition
  3
Enter the device name
  2
DT_Name
 70
     0
 74
     3
280
     0
  0
ATTDEF
  5
9F
330
9B
100
AcDbEntity
  8
0
 62
   240
100
AcDbText
 10
-13.3422
 20
-6.20048
 30
0.0
 40
1.6254
  1
17_20027
 72
     2
 11
-1.5
 21
-4.57508
 31
0.0
100
AcDbAttributeDefinition
  3
Enter the technical data of the device
  2
Technical_Data
 70
     0
 74
     3
280
     0
  0
ATTDEF
  5
A0
330
9B
100
AcDbEntity
  8
0
 62
   240
100
AcDbText
 10
-16.98
 20
-8.90048
 30
0.0
 40
1.6254
  1
17_20901[1]
 72
     2
 11
-1.5
 21
-7.27508
 31
0.0
100
AcDbAttributeDefinition
  3
Enter supplementary device data
  2
Supplementary_Field
 70
     0
 74
     3
280
     0
  0
ATTDEF
  5
A1
330
9B
100
AcDbEntity
  8
0
 62
   240
100
AcDbText
 10
-12.8778
 20
-11.60048
 30
0.0
 40
1.6254
  1
17_20011
 72
     2
 11
-1.5
 21
-9.97508
 31
0.0
100
AcDbAttributeDefinition
  3
Enter the device function text
  2
Function_Text
 70
     0
 74
     3
280
     0
  0
ATTDEF
  5
A2
330
9B
100
AcDbEntity
  8
0
 62
   240
100
AcDbText
 10
-13.3422
 20
-14.30048
 30
0.0
 40
1.6254
  1
17_20025
 72
     2
 11
-1.5
 21
-12.67508
 31
0.0
100
AcDbAttributeDefinition
  3
Enter the text for the label
  2
Label_Text
 70
     0
 74
     3
280
     0
  0
ATTDEF
  5
A3
330
9B
100
AcDbEntity
  8
0
 62
   240
100
AcDbText
 10
-13.4196
 20
-17.00048
 30
0.0
 40
1.6254
  1
17_20024
 72
     2
 11
-1.5
 21
-15.37508
 31
0.0
100
AcDbAttributeDefinition
  3
Enter the mounting location of the device
  2
Mounting_Location
 70
     0
 74
     3
280
     0
  0
LWPOLYLINE
  5
A4
102
{ACAD_REACTORS
330
93
102
}
330
9B
100
AcDbEntity
  8
EPLAN_Symbol
  6
EPL_DASH
 62
     4
 48
4.0
370
    25
100
AcDbPolyline
 90
        4
 70
     1
 43
0.0
 10
0.0
 20
-32.0
 10
304.0
 20
-32.0
 10
304.0
 20
0.0
 10
0.0
 20
0.0
  0
ENDBLK
  5
9D
330
9B
100
AcDbEntity
  8
0
100
AcDbBlockEnd
  0
BLOCK
  5
B4
330
B3
100
AcDbEntity
  8
0
100
AcDbBlockBegin
  2
EPLSYM_LibrarySPECIAL_Symbol34_Variant0_Placement1
 70
     2
 10
0.0
 20
0.0
 30
0.0
  3
EPLSYM_LibrarySPECIAL_Symbol34_Variant0_Placement1
  1

  0
ATTDEF
  5
B6
330
B3
100
AcDbEntity
  8
0
 62
   240
100
AcDbText
 10
2.3
 20
2.9644
 30
0.0
 40
1.6254
  1
17_20038
 11
2.3
 21
2.5
 31
0.0
100
AcDbAttributeDefinition
  3
Name of the connection point
  2
Connection_Name
 70
     0
 74
     1
280
     0
  0
ATTDEF
  5
B7
330
B3
100
AcDbEntity
  8
0
 62
     7
100
AcDbText
 10
2.3
 20
5.5354
 30
0.0
 40
1.1739
  1
17_20039
 11
2.3
 21
5.2
 31
0.0
100
AcDbAttributeDefinition
  3
Enter the description of the connection
  2
Connection_Description
 70
     0
 74
     1
280
     0
  0
ATTDEF
  5
B8
330
B3
100
AcDbEntity
  8
0
 62
   251
100
AcDbText
 10
-6.1533
 20
-2.95048
 30
0.0
 40
1.6254
  1
17_20037
 72
     1
 11
0.0
 21
-1.32508
 31
0.0
100
AcDbAttributeDefinition
  3
Enter the PLC address
  2
PLC_Address
 70
     0
 74
     3
280
     0
  0
CIRCLE
  5
BA
102
{ACAD_REACTORS
330
B9
102
}
330
B3
100
AcDbEntity
  8
EPLAN_Symbol
  6
Continuous
 62
     4
 48
4.0
370
    25
100
AcDbCircle
 10
0.0
 20
0.0
 30
0.0
 40
1.0
  0
LINE
  5
BB
102
{ACAD_REACTORS
330
B9
102
}
330
B3
100
AcDbEntity
  8
EPLAN_Symbol
  6
Continuous
 62
     4
 48
4.0
370
    25
100
AcDbLine
 10
0.0
 20
1.0
 30
0.0
 11
0.0
 21
1.5
 31
0.0
  0
LWPOLYLINE
  5
BC
102
{ACAD_REACTORS
330
B9
102
}
330
B3
100
AcDbEntity
  8
EPLAN_Symbol
  6
Continuous
 62
     4
 48
4.0
370
    25
100
AcDbPolyline
 90
        4
 70
     1
 43
0.0
 10
-0.5
 20
1.5
 10
0.5
 20
1.5
 10
0.5
 20
3.0
 10
-0.5
 20
3.0
  0
HATCH
  5
BD
330
B3
100
AcDbEntity
  8
EPLAN_Symbol
  6
Continuous
 62
     4
 48
4.0
370
    25
100
AcDbHatch
 10
0.0
 20
0.0
 30
0.0
210
0.0
220
0.0
230
1.0
  2
SOLID
 70
     1
 71
     0
 91
        1
 92
        2
 72
     0
 73
     1
 93
        4
 10
-0.5
 20
1.5
 10
0.5
 20
1.5
 10
0.5
 20
3.0
 10
-0.5
 20
3.0
 97
        0
 75
     0
 76
     1
 98
        0
  0
ARC
  5
BE
102
{ACAD_REACTORS
330
B9
102
}
330
B3
100
AcDbEntity
  8
EPLAN_Symbol
  6
Continuous
 62
     4
 48
4.0
370
    25
100
AcDbCircle
 10
0.0
 20
3.0
 30
0.0
 40
1.0
100
AcDbArc
 50
0.0
 51
179.9999999999998
  0
ENDBLK
  5
B5
330
B3
100
AcDbEntity
  8
0
100
AcDbBlockEnd
  0
ENDSEC
  0
SECTION
  2
ENTITIES
  0
TEXT
  5
95
102
{ACAD_REACTORS
330
93
102
}
330
1F
100
AcDbEntity
  8
EPLAN_Property
 62
     7
100
AcDbText
 10
28.0
 20
69.291
 30
0.0
 40
2.2575
  1
Siemens\Automation_Systems\S7-1200\6ES7215-1AG31-0XB0.ema
  7
Tahoma
 11
28.0
 21
71.5485
 31
0.0
100
AcDbText
 73
     3
  0
TEXT
  5
96
102
{ACAD_REACTORS
330
93
102
}
330
1F
100
AcDbEntity
  8
EPLAN_Property
 62
     7
100
AcDbText
 10
28.0
 20
65.541
 30
0.0
 40
2.2575
  1
Allpolig
  7
Tahoma
 11
28.0
 21
67.7985
 31
0.0
100
AcDbText
 73
     3
  0
TEXT
  5
97
102
{ACAD_REACTORS
330
93
102
}
330
1F
100
AcDbEntity
  8
EPLAN_Property
 62
     7
100
AcDbText
 10
28.0
 20
61.791
 30
0.0
 40
2.2575
  1
Variante C
  7
Tahoma
 11
28.0
 21
64.0485
 31
0.0
100
AcDbText
 73
     3
  0
TEXT
  5
98
102
{ACAD_REACTORS
330
93
102
}
330
1F
100
AcDbEntity
  8
EPLAN_Property
 62
     7
100
AcDbText
 10
28.0
 20
58.041
 30
0.0
 40
2.2575
  1
2016-10 / P8 2.4
  7
Tahoma
 11
28.0
 21
60.2985
 31
0.0
100
AcDbText
 73
     3
  0
TEXT
  5
99
102
{ACAD_REACTORS
330
93
102
}
330
1F
100
AcDbEntity
  8
EPLAN_Property
 62
     7
100
AcDbText
 10
28.0
 20
54.291
 30
0.0
 40
2.2575
  1
CPU 1215C DC/DC/DC
  7
Tahoma
 11
28.0
 21
56.5485
 31
0.0
100
AcDbText
 73
     3
  0
LWPOLYLINE
  5
9A
102
{ACAD_REACTORS
330
93
102
}
330
1F
100
AcDbEntity
  8
EPLAN_Symbol
  6
EPL_DASH
 62
     4
 48
4.0
370
    25
100
AcDbPolyline
 90
        2
 70
     0
 43
0.0
 10
32.0
 20
84.0
 10
336.0
 20
84.0
  0
INSERT
  5
A5
102
{ACAD_REACTORS
330
93
102
}
330
1F
100
AcDbEntity
  8
0
100
AcDbBlockReference
 66
     1
  2
EPLSYM_LibrarySPECIAL_Symbol1_Variant0_Placement1
 10
32.0
 20
108.0
 30
0.0
  0
ATTRIB
  5
A6
330
A5
100
AcDbEntity
  8
EPLAN_Property
 62
     7
100
AcDbText
 10
25.8518075
 20
104.791
 30
0.0
 40
2.2575
  1
-K1
  7
Tahoma
 72
     2
 11
30.5
 21
107.0485
 31
0.0
100
AcDbAttribute
  2
DT_Name
 70
     0
 74
     3
280
     0
  0
ATTRIB
  5
A7
330
A5
100
AcDbEntity
  8
EPLAN_Property
 62
   240
100
AcDbText
 10
32.0
 20
106.04952
 30
0.0
 40
1.6254
  1

  7
Tahoma
 72
     2
 11
32.0
 21
107.67492
 31
0.0
100
AcDbAttribute
  2
Technical_Data
 70
     0
 74
     3
280
     0
  0
ATTRIB
  5
A8
330
A5
100
AcDbEntity
  8
EPLAN_Property
 62
   240
100
AcDbText
 10
32.0
 20
106.04952
 30
0.0
 40
1.6254
  1

  7
Tahoma
 72
     2
 11
32.0
 21
107.67492
 31
0.0
100
AcDbAttribute
  2
Supplementary_Field
 70
     0
 74
     3
280
     0
  0
ATTRIB
  5
A9
330
A5
100
AcDbEntity
  8
EPLAN_Property
 62
   240
100
AcDbText
 10
32.0
 20
106.04952
 30
0.0
 40
1.6254
  1

  7
Tahoma
 72
     2
 11
32.0
 21
107.67492
 31
0.0
100
AcDbAttribute
  2
Function_Text
 70
     0
 74
     3
280
     0
  0
ATTRIB
  5
AA
330
A5
100
AcDbEntity
  8
EPLAN_Property
 62
   240
100
AcDbText
 10
32.0
 20
106.04952
 30
0.0
 40
1.6254
  1

  7
Tahoma
 72
     2
 11
32.0
 21
107.67492
 31
0.0
100
AcDbAttribute
  2
Label_Text
 70
     0
 74
     3
280
     0
  0
ATTRIB
  5
AB
330
A5
100
AcDbEntity
  8
EPLAN_Property
 62
   240
100
AcDbText
 10
32.0
 20
106.04952
 30
0.0
 40
1.6254
  1

  7
Tahoma
 72
     2
 11
32.0
 21
107.67492
 31
0.0
100
AcDbAttribute
  2
Mounting_Location
 70
     0
 74
     3
280
     0
  0
ATTRIB
  5
AC
330
A5
100
AcDbEntity
  8
EPLAN_Property
 62
     7
100
AcDbText
 10
32.0
 20
108.6412505461165
 30
0.0
 40
2.2575
  1

  7
Tahoma
 11
32.0
 21
108.0
 31
0.0
100
AcDbAttribute
  2
Module_ID
 70
     0
 74
     1
280
     0
  0
ATTRIB
  5
AD
330
A5
100
AcDbEntity
  8
EPLAN_Property
 62
     7
100
AcDbText
 10
32.0
 20
108.6412505461165
 30
0.0
 40
2.2575
  1

  7
Tahoma
 11
32.0
 21
108.0
 31
0.0
100
AcDbAttribute
  2
Module_ID_1
 70
     0
 74
     1
280
     0
  0
ATTRIB
  5
AE
330
A5
100
AcDbEntity
  8
EPLAN_Property
 62
     7
100
AcDbText
 10
32.0
 20
108.6412505461165
 30
0.0
 40
2.2575
  1

  7
Tahoma
 11
32.0
 21
108.0
 31
0.0
100
AcDbAttribute
  2
Slot_ID
 70
     0
 74
     1
280
     0
  0
ATTRIB
  5
AF
330
A5
100
AcDbEntity
  8
EPLAN_Graphic
 62
     7
100
AcDbText
 10
319.43927
 20
78.6455
 30
0.0
 40
2.2575
  1
SIEMENS
  7
Tahoma
 72
     2
 11
332.0
 21
79.77425
 31
0.0
100
AcDbAttribute
  2
Supplementary_Field13
 70
     0
 74
     2
280
     0
  0
ATTRIB
  5
B0
330
A5
100
AcDbEntity
  8
EPLAN_Property
 62
     7
100
AcDbText
 10
36.0
 20
78.64125054611651
 30
0.0
 40
2.2575
  1
6ES7215-1AG31-0XB0
  7
Tahoma
 11
36.0
 21
78.0
 31
0.0
100
AcDbAttribute
  2
Supplementary_Field14
 70
     0
 74
     1
280
     0
  0
ATTRIB
  5
B1
330
A5
100
AcDbEntity
  8
EPLAN_Property
 62
     7
100
AcDbText
 10
176.75623125
 20
78.6455
 30
0.0
 40
2.2575
  1
CPU 1215C DC/DC/DC
  7
Tahoma
 72
     1
 11
192.0
 21
79.77425
 31
0.0
100
AcDbAttribute
  2
Supplementary_Field15
 70
     0
 74
     2
280
     0
  0
SEQEND
  5
B2
330
A5
100
AcDbEntity
  8
0
  0
INSERT
  5
BF
102
{ACAD_REACTORS
330
93
102
}
330
1F
100
AcDbEntity
  8
0
100
AcDbBlockReference
 66
     1
  2
EPLSYM_LibrarySPECIAL_Symbol34_Variant0_Placement1
 10
184.0
 20
100.0
 30
0.0
  0
ATTRIB
  5
C0
330
BF
100
AcDbEntity
  8
EPLAN_Property
 62
   240
100
AcDbText
 10
186.3
 20
99.01170039320388
 30
0.0
 40
1.6254
  1
10
  7
Tahoma
 11
186.3
 21
98.55
 31
0.0
100
AcDbAttribute
  2
Connection_Name
 70
     0
 74
     1
280
     0
  0
ATTRIB
  5
C1
330
BF
100
AcDbEntity
  8
EPLAN_Property
 62
     7
100
AcDbText
 10
186.3
 20
101.5834502839806
 30
0.0
 40
1.1739
  1
DI a.3
  7
Tahoma
 11
186.3
 21
101.25
 31
0.0
100
AcDbAttribute
  2
Connection_Description
 70
     0
 74
     1
280
     0
  0
ATTRIB
  5
C2
330
BF
100
AcDbEntity
  8
EPLAN_Property
 62
   251
100
AcDbText
 10
181.9861294
 20
95.04952
 30
0.0
 40
1.6254
  1
IX.3
  7
Tahoma
 72
     1
 11
184.0
 21
96.67492
 31
0.0
100
AcDbAttribute
  2
PLC_Address
 70
     0
 74
     3
280
     0
  0
ATTRIB
  5
C3
330
BF
100
AcDbEntity
  8
EPLAN_Property
 62
   251
100
AcDbText
 10
177.14888
 20
99.01292666590871
 30
0.0
 40
1.6254
  1
-X10
  7
Tahoma
 72
     2
 11
181.7
 21
98.55122627270482
 31
0.0
100
AcDbAttribute
  2
Plug_Name
 70
     0
 74
     1
280
     0
  0
ATTRIB
  5
C4
330
BF
100
AcDbEntity
  8
EPLAN_Property
 62
   251
100
AcDbText
 10
184.0
 20
91.46170039320388
 30
0.0
 40
1.6254
  1

  7
Tahoma
 11
184.0
 21
91.0
 31
0.0
100
AcDbAttribute
  2
Symbolic_Address
 70
     0
 74
     1
280
     0
  0
ATTRIB
  5
C5
330
BF
100
AcDbEntity
  8
EPLAN_Property
 62
   251
100
AcDbText
 10
179.4448165
 20
64.0
 30
0.0
 40
1.6254
  1
RESERVE
  7
Tahoma
 72
     1
 11
184.0
 21
64.0
 31
0.0
100
AcDbAttribute
  2
Function_Text
 70
     0
280
     0
  0
SEQEND
  5
C6
330
BF
100
AcDbEntity
  8
0
  0
INSERT
  5
C7
102
{ACAD_REACTORS
330
93
102
}
330
1F
100
AcDbEntity
  8
0
100
AcDbBlockReference
 66
     1
  2
EPLSYM_LibrarySPECIAL_Symbol34_Variant0_Placement1
 10
216.0
 20
100.0
 30
0.0
  0
ATTRIB
  5
C8
330
C7
100
AcDbEntity
  8
EPLAN_Property
 62
   251
100
AcDbText
 10
209.14888
 20
99.01292666590871
 30
0.0
 40
1.6254
  1
-X10
  7
Tahoma
 72
     2
 11
213.7
 21
98.55122627270482
 31
0.0
100
AcDbAttribute
  2
Plug_Name
 70
     0
 74
     1
280
     0
  0
ATTRIB
  5
C9
330
C7
100
AcDbEntity
  8
EPLAN_Property
 62
   240
100
AcDbText
 10
218.3
 20
99.01170039320388
 30
0.0
 40
1.6254
  1
11
  7
Tahoma
 11
218.3
 21
98.55
 31
0.0
100
AcDbAttribute
  2
Connection_Name
 70
     0
 74
     1
280
     0
  0
ATTRIB
  5
CA
330
C7
100
AcDbEntity
  8
EPLAN_Property
 62
     7
100
AcDbText
 10
218.3
 20
101.5834502839806
 30
0.0
 40
1.1739
  1
DI a.4
  7
Tahoma
 11
218.3
 21
101.25
 31
0.0
100
AcDbAttribute
  2
Connection_Description
 70
     0
 74
     1
280
     0
  0
ATTRIB
  5
CB
330
C7
100
AcDbEntity
  8
EPLAN_Property
 62
   251
100
AcDbText
 10
213.9861294
 20
95.04952
 30
0.0
 40
1.6254
  1
IX.4
  7
Tahoma
 72
     1
 11
216.0
 21
96.67492
 31
0.0
100
AcDbAttribute
  2
PLC_Address
 70
     0
 74
     3
280
     0
  0
ATTRIB
  5
CC
330
C7
100
AcDbEntity
  8
EPLAN_Property
 62
   251
100
AcDbText
 10
216.0
 20
91.46170039320388
 30
0.0
 40
1.6254
  1

  7
Tahoma
 11
216.0
 21
91.0
 31
0.0
100
AcDbAttribute
  2
Symbolic_Address
 70
     0
 74
     1
280
     0
  0
ATTRIB
  5
CD
330
C7
100
AcDbEntity
  8
EPLAN_Property
 62
   251
100
AcDbText
 10
211.4448165
 20
64.0
 30
0.0
 40
1.6254
  1
RESERVE
  7
Tahoma
 72
     1
 11
216.0
 21
64.0
 31
0.0
100
AcDbAttribute
  2
Function_Text
 70
     0
280
     0
  0
SEQEND
  5
CE
330
C7
100
AcDbEntity
  8
0
  0
INSERT
  5
CF
102
{ACAD_REACTORS
330
93
102
}
330
1F
100
AcDbEntity
  8
0
100
AcDbBlockReference
 66
     1
  2
EPLSYM_LibrarySPECIAL_Symbol34_Variant0_Placement1
 10
248.0
 20
100.0
 30
0.0
  0
ATTRIB
  5
D0
330
CF
100
AcDbEntity
  8
EPLAN_Property
 62
   251
100
AcDbText
 10
241.14888
 20
99.01292666590871
 30
0.0
 40
1.6254
  1
-X10
  7
Tahoma
 72
     2
 11
245.7
 21
98.55122627270482
 31
0.0
100
AcDbAttribute
  2
Plug_Name
 70
     0
 74
     1
280
     0
  0
ATTRIB
  5
D1
330
CF
100
AcDbEntity
  8
EPLAN_Property
 62
   240
100
AcDbText
 10
250.3
 20
99.01170039320388
 30
0.0
 40
1.6254
  1
12
  7
Tahoma
 11
250.3
 21
98.55
 31
0.0
100
AcDbAttribute
  2
Connection_Name
 70
     0
 74
     1
280
     0
  0
ATTRIB
  5
D2
330
CF
100
AcDbEntity
  8
EPLAN_Property
 62
     7
100
AcDbText
 10
250.3
 20
101.5834502839806
 30
0.0
 40
1.1739
  1
DI a.5
  7
Tahoma
 11
250.3
 21
101.25
 31
0.0
100
AcDbAttribute
  2
Connection_Description
 70
     0
 74
     1
280
     0
  0
ATTRIB
  5
D3
330
CF
100
AcDbEntity
  8
EPLAN_Property
 62
   251
100
AcDbText
 10
245.9861294
 20
95.04952
 30
0.0
 40
1.6254
  1
IX.5
  7
Tahoma
 72
     1
 11
248.0
 21
96.67492
 31
0.0
100
AcDbAttribute
  2
PLC_Address
 70
     0
 74
     3
280
     0
  0
ATTRIB
  5
D4
330
CF
100
AcDbEntity
  8
EPLAN_Property
 62
   251
100
AcDbText
 10
248.0
 20
91.46170039320388
 30
0.0
 40
1.6254
  1

  7
Tahoma
 11
248.0
 21
91.0
 31
0.0
100
AcDbAttribute
  2
Symbolic_Address
 70
     0
 74
     1
280
     0
  0
ATTRIB
  5
D5
330
CF
100
AcDbEntity
  8
EPLAN_Property
 62
   251
100
AcDbText
 10
243.4448165
 20
64.0
 30
0.0
 40
1.6254
  1
RESERVE
  7
Tahoma
 72
     1
 11
248.0
 21
64.0
 31
0.0
100
AcDbAttribute
  2
Function_Text
 70
     0
280
     0
  0
SEQEND
  5
D6
330
CF
100
AcDbEntity
  8
0
  0
INSERT
  5
D7
102
{ACAD_REACTORS
330
93
102
}
330
1F
100
AcDbEntity
  8
0
100
AcDbBlockReference
 66
     1
  2
EPLSYM_LibrarySPECIAL_Symbol34_Variant0_Placement1
 10
88.0
 20
100.0
 30
0.0
  0
ATTRIB
  5
D8
330
D7
100
AcDbEntity
  8
EPLAN_Property
 62
   251
100
AcDbText
 10
81.14888
 20
99.01292666590871
 30
0.0
 40
1.6254
  1
-X10
  7
Tahoma
 72
     2
 11
85.7
 21
98.55122627270482
 31
0.0
100
AcDbAttribute
  2
Plug_Name
 70
     0
 74
     1
280
     0
  0
ATTRIB
  5
D9
330
D7
100
AcDbEntity
  8
EPLAN_Property
 62
   240
100
AcDbText
 10
90.3
 20
99.01170039320388
 30
0.0
 40
1.6254
  1
7
  7
Tahoma
 11
90.3
 21
98.55
 31
0.0
100
AcDbAttribute
  2
Connection_Name
 70
     0
 74
     1
280
     0
  0
ATTRIB
  5
DA
330
D7
100
AcDbEntity
  8
EPLAN_Property
 62
     7
100
AcDbText
 10
90.3
 20
101.5834502839806
 30
0.0
 40
1.1739
  1
DI a.0
  7
Tahoma
 11
90.3
 21
101.25
 31
0.0
100
AcDbAttribute
  2
Connection_Description
 70
     0
 74
     1
280
     0
  0
ATTRIB
  5
DB
330
D7
100
AcDbEntity
  8
EPLAN_Property
 62
   251
100
AcDbText
 10
85.9861294
 20
95.04952
 30
0.0
 40
1.6254
  1
IX.0
  7
Tahoma
 72
     1
 11
88.0
 21
96.67492
 31
0.0
100
AcDbAttribute
  2
PLC_Address
 70
     0
 74
     3
280
     0
  0
ATTRIB
  5
DC
330
D7
100
AcDbEntity
  8
EPLAN_Property
 62
   251
100
AcDbText
 10
88.0
 20
91.46170039320388
 30
0.0
 40
1.6254
  1

  7
Tahoma
 11
88.0
 21
91.0
 31
0.0
100
AcDbAttribute
  2
Symbolic_Address
 70
     0
 74
     1
280
     0
  0
ATTRIB
  5
DD
330
D7
100
AcDbEntity
  8
EPLAN_Property
 62
   251
100
AcDbText
 10
83.4448165
 20
64.0
 30
0.0
 40
1.6254
  1
RESERVE
  7
Tahoma
 72
     1
 11
88.0
 21
64.0
 31
0.0
100
AcDbAttribute
  2
Function_Text
 70
     0
280
     0
  0
SEQEND
  5
DE
330
D7
100
AcDbEntity
  8
0
  0
INSERT
  5
DF
102
{ACAD_REACTORS
330
93
102
}
330
1F
100
AcDbEntity
  8
0
100
AcDbBlockReference
 66
     1
  2
EPLSYM_LibrarySPECIAL_Symbol34_Variant0_Placement1
 10
120.0
 20
100.0
 30
0.0
  0
ATTRIB
  5
E0
330
DF
100
AcDbEntity
  8
EPLAN_Property
 62
   251
100
AcDbText
 10
113.14888
 20
99.01292666590871
 30
0.0
 40
1.6254
  1
-X10
  7
Tahoma
 72
     2
 11
117.7
 21
98.55122627270482
 31
0.0
100
AcDbAttribute
  2
Plug_Name
 70
     0
 74
     1
280
     0
  0
ATTRIB
  5
E1
330
DF
100
AcDbEntity
  8
EPLAN_Property
 62
   240
100
AcDbText
 10
122.3
 20
99.01170039320388
 30
0.0
 40
1.6254
  1
8
  7
Tahoma
 11
122.3
 21
98.55
 31
0.0
100
AcDbAttribute
  2
Connection_Name
 70
     0
 74
     1
280
     0
  0
ATTRIB
  5
E2
330
DF
100
AcDbEntity
  8
EPLAN_Property
 62
     7
100
AcDbText
 10
122.3
 20
101.5834502839806
 30
0.0
 40
1.1739
  1
DI a.1
  7
Tahoma
 11
122.3
 21
101.25
 31
0.0
100
AcDbAttribute
  2
Connection_Description
 70
     0
 74
     1
280
     0
  0
ATTRIB
  5
E3
330
DF
100
AcDbEntity
  8
EPLAN_Property
 62
   251
100
AcDbText
 10
117.9861294
 20
95.04952
 30
0.0
 40
1.6254
  1
IX.1
  7
Tahoma
 72
     1
 11
120.0
 21
96.67492
 31
0.0
100
AcDbAttribute
  2
PLC_Address
 70
     0
 74
     3
280
     0
  0
ATTRIB
  5
E4
330
DF
100
AcDbEntity
  8
EPLAN_Property
 62
   251
100
AcDbText
 10
120.0
 20
91.46170039320388
 30
0.0
 40
1.6254
  1

  7
Tahoma
 11
120.0
 21
91.0
 31
0.0
100
AcDbAttribute
  2
Symbolic_Address
 70
     0
 74
     1
280
     0
  0
ATTRIB
  5
E5
330
DF
100
AcDbEntity
  8
EPLAN_Property
 62
   251
100
AcDbText
 10
115.4448165
 20
64.0
 30
0.0
 40
1.6254
  1
RESERVE
  7
Tahoma
 72
     1
 11
120.0
 21
64.0
 31
0.0
100
AcDbAttribute
  2
Function_Text
 70
     0
280
     0
  0
SEQEND
  5
E6
330
DF
100
AcDbEntity
  8
0
  0
INSERT
  5
E7
102
{ACAD_REACTORS
330
93
102
}
330
1F
100
AcDbEntity
  8
0
100
AcDbBlockReference
 66
     1
  2
EPLSYM_LibrarySPECIAL_Symbol34_Variant0_Placement1
 10
152.0
 20
100.0
 30
0.0
  0
ATTRIB
  5
E8
330
E7
100
AcDbEntity
  8
EPLAN_Property
 62
   251
100
AcDbText
 10
145.14888
 20
99.01292666590871
 30
0.0
 40
1.6254
  1
-X10
  7
Tahoma
 72
     2
 11
149.7
 21
98.55122627270482
 31
0.0
100
AcDbAttribute
  2
Plug_Name
 70
     0
 74
     1
280
     0
  0
ATTRIB
  5
E9
330
E7
100
AcDbEntity
  8
EPLAN_Property
 62
   240
100
AcDbText
 10
154.3
 20
99.01170039320388
 30
0.0
 40
1.6254
  1
9
  7
Tahoma
 11
154.3
 21
98.55
 31
0.0
100
AcDbAttribute
  2
Connection_Name
 70
     0
 74
     1
280
     0
  0
ATTRIB
  5
EA
330
E7
100
AcDbEntity
  8
EPLAN_Property
 62
     7
100
AcDbText
 10
154.3
 20
101.5834502839806
 30
0.0
 40
1.1739
  1
DI a.2
  7
Tahoma
 11
154.3
 21
101.25
 31
0.0
100
AcDbAttribute
  2
Connection_Description
 70
     0
 74
     1
280
     0
  0
ATTRIB
  5
EB
330
E7
100
AcDbEntity
  8
EPLAN_Property
 62
   251
100
AcDbText
 10
149.9861294
 20
95.04952
 30
0.0
 40
1.6254
  1
IX.2
  7
Tahoma
 72
     1
 11
152.0
 21
96.67492
 31
0.0
100
AcDbAttribute
  2
PLC_Address
 70
     0
 74
     3
280
     0
  0
ATTRIB
  5
EC
330
E7
100
AcDbEntity
  8
EPLAN_Property
 62
   251
100
AcDbText
 10
152.0
 20
91.46170039320388
 30
0.0
 40
1.6254
  1

  7
Tahoma
 11
152.0
 21
91.0
 31
0.0
100
AcDbAttribute
  2
Symbolic_Address
 70
     0
 74
     1
280
     0
  0
ATTRIB
  5
ED
330
E7
100
AcDbEntity
  8
EPLAN_Property
 62
   251
100
AcDbText
 10
147.4448165
 20
64.0
 30
0.0
 40
1.6254
  1
RESERVE
  7
Tahoma
 72
     1
 11
152.0
 21
64.0
 31
0.0
100
AcDbAttribute
  2
Function_Text
 70
     0
280
     0
  0
SEQEND
  5
EE
330
E7
100
AcDbEntity
  8
0
  0
INSERT
  5
EF
102
{ACAD_REACTORS
330
93
102
}
330
1F
100
AcDbEntity
  8
0
100
AcDbBlockReference
 66
     1
  2
EPLSYM_LibrarySPECIAL_Symbol34_Variant0_Placement1
 10
56.0
 20
100.0
 30
0.0
  0
ATTRIB
  5
F0
330
EF
100
AcDbEntity
  8
EPLAN_Property
 62
   251
100
AcDbText
 10
49.14888000000001
 20
99.01292666590871
 30
0.0
 40
1.6254
  1
-X10
  7
Tahoma
 72
     2
 11
53.7
 21
98.55122627270482
 31
0.0
100
AcDbAttribute
  2
Plug_Name
 70
     0
 74
     1
280
     0
  0
ATTRIB
  5
F1
330
EF
100
AcDbEntity
  8
EPLAN_Property
 62
   240
100
AcDbText
 10
58.3
 20
99.01170039320388
 30
0.0
 40
1.6254
  1
6
  7
Tahoma
 11
58.3
 21
98.55
 31
0.0
100
AcDbAttribute
  2
Connection_Name
 70
     0
 74
     1
280
     0
  0
ATTRIB
  5
F2
330
EF
100
AcDbEntity
  8
EPLAN_Property
 62
     7
100
AcDbText
 10
58.3
 20
101.5834502839806
 30
0.0
 40
1.1739
  1
1M
  7
Tahoma
 11
58.3
 21
101.25
 31
0.0
100
AcDbAttribute
  2
Connection_Description
 70
     0
 74
     1
280
     0
  0
ATTRIB
  5
F3
330
EF
100
AcDbEntity
  8
EPLAN_Property
 62
   251
100
AcDbText
 10
56.0
 20
95.04952
 30
0.0
 40
1.6254
  1

  7
Tahoma
 72
     1
 11
56.0
 21
96.67492
 31
0.0
100
AcDbAttribute
  2
PLC_Address
 70
     0
 74
     3
280
     0
  0
ATTRIB
  5
F4
330
EF
100
AcDbEntity
  8
EPLAN_Property
 62
   251
100
AcDbText
 10
56.0
 20
91.46170039320388
 30
0.0
 40
1.6254
  1

  7
Tahoma
 11
56.0
 21
91.0
 31
0.0
100
AcDbAttribute
  2
Symbolic_Address
 70
     0
 74
     1
280
     0
  0
ATTRIB
  5
F5
330
EF
100
AcDbEntity
  8
EPLAN_Property
 62
   251
100
AcDbText
 10
56.0
 20
64.0
 30
0.0
 40
1.6254
  1

  7
Tahoma
 72
     1
 11
56.0
 21
64.0
 31
0.0
100
AcDbAttribute
  2
Function_Text
 70
     0
280
     0
  0
SEQEND
  5
F6
330
EF
100
AcDbEntity
  8
0
  0
INSERT
  5
F7
102
{ACAD_REACTORS
330
93
102
}
330
1F
100
AcDbEntity
  8
0
100
AcDbBlockReference
 66
     1
  2
EPLSYM_LibrarySPECIAL_Symbol34_Variant0_Placement1
 10
280.0
 20
100.0
 30
0.0
  0
ATTRIB
  5
F8
330
F7
100
AcDbEntity
  8
EPLAN_Property
 62
   251
100
AcDbText
 10
273.14888
 20
99.01292666590871
 30
0.0
 40
1.6254
  1
-X10
  7
Tahoma
 72
     2
 11
277.7
 21
98.55122627270482
 31
0.0
100
AcDbAttribute
  2
Plug_Name
 70
     0
 74
     1
280
     0
  0
ATTRIB
  5
F9
330
F7
100
AcDbEntity
  8
EPLAN_Property
 62
   240
100
AcDbText
 10
282.3
 20
99.01170039320388
 30
0.0
 40
1.6254
  1
13
  7
Tahoma
 11
282.3
 21
98.55
 31
0.0
100
AcDbAttribute
  2
Connection_Name
 70
     0
 74
     1
280
     0
  0
ATTRIB
  5
FA
330
F7
100
AcDbEntity
  8
EPLAN_Property
 62
     7
100
AcDbText
 10
282.3
 20
101.5834502839806
 30
0.0
 40
1.1739
  1
DI a.6
  7
Tahoma
 11
282.3
 21
101.25
 31
0.0
100
AcDbAttribute
  2
Connection_Description
 70
     0
 74
     1
280
     0
  0
ATTRIB
  5
FB
330
F7
100
AcDbEntity
  8
EPLAN_Property
 62
   251
100
AcDbText
 10
277.9861294
 20
95.04952
 30
0.0
 40
1.6254
  1
IX.6
  7
Tahoma
 72
     1
 11
280.0
 21
96.67492
 31
0.0
100
AcDbAttribute
  2
PLC_Address
 70
     0
 74
     3
280
     0
  0
ATTRIB
  5
FC
330
F7
100
AcDbEntity
  8
EPLAN_Property
 62
   251
100
AcDbText
 10
280.0
 20
91.46170039320388
 30
0.0
 40
1.6254
  1

  7
Tahoma
 11
280.0
 21
91.0
 31
0.0
100
AcDbAttribute
  2
Symbolic_Address
 70
     0
 74
     1
280
     0
  0
ATTRIB
  5
FD
330
F7
100
AcDbEntity
  8
EPLAN_Property
 62
   251
100
AcDbText
 10
275.4448165
 20
64.0
 30
0.0
 40
1.6254
  1
RESERVE
  7
Tahoma
 72
     1
 11
280.0
 21
64.0
 31
0.0
100
AcDbAttribute
  2
Function_Text
 70
     0
280
     0
  0
SEQEND
  5
FE
330
F7
100
AcDbEntity
  8
0
  0
INSERT
  5
FF
102
{ACAD_REACTORS
330
93
102
}
330
1F
100
AcDbEntity
  8
0
100
AcDbBlockReference
 66
     1
  2
EPLSYM_LibrarySPECIAL_Symbol34_Variant0_Placement1
 10
312.0
 20
100.0
 30
0.0
  0
ATTRIB
  5
100
330
FF
100
AcDbEntity
  8
EPLAN_Property
 62
   251
100
AcDbText
 10
305.14888
 20
99.01292666590871
 30
0.0
 40
1.6254
  1
-X10
  7
Tahoma
 72
     2
 11
309.7
 21
98.55122627270482
 31
0.0
100
AcDbAttribute
  2
Plug_Name
 70
     0
 74
     1
280
     0
  0
ATTRIB
  5
101
330
FF
100
AcDbEntity
  8
EPLAN_Property
 62
   240
100
AcDbText
 10
314.3
 20
99.01170039320388
 30
0.0
 40
1.6254
  1
14
  7
Tahoma
 11
314.3
 21
98.55
 31
0.0
100
AcDbAttribute
  2
Connection_Name
 70
     0
 74
     1
280
     0
  0
ATTRIB
  5
102
330
FF
100
AcDbEntity
  8
EPLAN_Property
 62
     7
100
AcDbText
 10
314.3
 20
101.5834502839806
 30
0.0
 40
1.1739
  1
DI a.7
  7
Tahoma
 11
314.3
 21
101.25
 31
0.0
100
AcDbAttribute
  2
Connection_Description
 70
     0
 74
     1
280
     0
  0
ATTRIB
  5
103
330
FF
100
AcDbEntity
  8
EPLAN_Property
 62
   251
100
AcDbText
 10
309.9861294
 20
95.04952
 30
0.0
 40
1.6254
  1
IX.7
  7
Tahoma
 72
     1
 11
312.0
 21
96.67492
 31
0.0
100
AcDbAttribute
  2
PLC_Address
 70
     0
 74
     3
280
     0
  0
ATTRIB
  5
104
330
FF
100
AcDbEntity
  8
EPLAN_Property
 62
   251
100
AcDbText
 10
312.0
 20
91.46170039320388
 30
0.0
 40
1.6254
  1

  7
Tahoma
 11
312.0
 21
91.0
 31
0.0
100
AcDbAttribute
  2
Symbolic_Address
 70
     0
 74
     1
280
     0
  0
ATTRIB
  5
105
330
FF
100
AcDbEntity
  8
EPLAN_Property
 62
   251
100
AcDbText
 10
307.4448165
 20
64.0
 30
0.0
 40
1.6254
  1
RESERVE
  7
Tahoma
 72
     1
 11
312.0
 21
64.0
 31
0.0
100
AcDbAttribute
  2
Function_Text
 70
     0
280
     0
  0
SEQEND
  5
106
330
FF
100
AcDbEntity
  8
0
  0
ENDSEC
  0
SECTION
  2
OBJECTS
  0
DICTIONARY
  5
C
330
0
100
AcDbDictionary
281
     1
  3
ACAD_DETAILVIEWSTYLE
350
10F
  3
ACAD_GROUP
350
D
  3
ACAD_IMAGE_VARS
350
6E
  3
ACAD_LAYOUT
350
1A
  3
ACAD_MATERIAL
350
43
  3
ACAD_MLEADERSTYLE
350
6B
  3
ACAD_MLINESTYLE
350
17
  3
ACAD_PLOTSETTINGS
350
19
  3
ACAD_PLOTSTYLENAME
350
E
  3
ACAD_SCALELIST
350
47
  3
ACAD_SECTIONVIEWSTYLE
350
110
  3
ACAD_TABLESTYLE
350
69
  3
ACAD_VISUALSTYLE
350
2A
  3
ACDB_RECOMPOSE_DATA
350
10C
  3
AcDbVariableDictionary
350
107
  0
SUN
  5
6D
330
29
100
AcDbSun
 90
        1
290
     0
 63
     7
421
 16777215
 40
1.0
291
     1
 91
  2455826
 92
 54000000
292
     0
 70
     2
 71
   256
280
     1
  0
DICTIONARY
  5
10F
102
{ACAD_REACTORS
330
C
102
}
330
C
100
AcDbDictionary
281
     1
  0
DICTIONARY
  5
D
102
{ACAD_REACTORS
330
C
102
}
330
C
100
AcDbDictionary
281
     1
  3
EPLGROUP
350
91
  3
EPLGROUP_1
350
92
  3
EPLGROUP_2
350
93
  3
EPLGROUP_3
350
B9
  0
RASTERVARIABLES
  5
6E
102
{ACAD_REACTORS
330
C
102
}
330
C
100
AcDbRasterVariables
 90
        0
 70
     0
 71
     1
 72
     1
  0
DICTIONARY
  5
1A
102
{ACAD_REACTORS
330
C
102
}
330
C
100
AcDbDictionary
281
     1
  3
Layout1
350
1E
  3
Layout2
350
26
  3
Model
350
22
  0
DICTIONARY
  5
43
102
{ACAD_REACTORS
330
C
102
}
330
C
100
AcDbDictionary
281
     1
  3
ByBlock
350
45
  3
ByLayer
350
44
  3
Global
350
46
  0
DICTIONARY
  5
6B
102
{ACAD_REACTORS
330
C
102
}
330
C
100
AcDbDictionary
281
     1
  3
Standard
350
6C
  0
DICTIONARY
  5
17
102
{ACAD_REACTORS
330
C
102
}
330
C
100
AcDbDictionary
281
     1
  3
Standard
350
18
  0
DICTIONARY
  5
19
102
{ACAD_REACTORS
330
C
102
}
330
C
100
AcDbDictionary
281
     1
  0
ACDBDICTIONARYWDFLT
  5
E
102
{ACAD_REACTORS
330
C
102
}
330
C
100
AcDbDictionary
281
     1
  3
Normal
350
F
100
AcDbDictionaryWithDefault
340
F
  0
DICTIONARY
  5
47
102
{ACAD_REACTORS
330
C
102
}
330
C
100
AcDbDictionary
281
     1
  3
A0
350
48
  3
A1
350
49
  3
A2
350
4A
  3
A3
350
4B
  3
A4
350
4C
  3
A5
350
4D
  3
A6
350
4E
  3
A7
350
4F
  3
A8
350
50
  3
A9
350
51
  3
B0
350
52
  3
B1
350
53
  3
B2
350
54
  3
B3
350
55
  3
B4
350
56
  3
B5
350
57
  3
B6
350
58
  3
B7
350
59
  3
B8
350
5A
  3
B9
350
5B
  3
C0
350
5C
  3
C1
350
5D
  3
C2
350
5E
  3
C3
350
5F
  3
C4
350
60
  3
C5
350
61
  3
C6
350
62
  3
C7
350
63
  3
C8
350
64
  3
C9
350
65
  3
D0
350
66
  3
D1
350
67
  3
D2
350
68
  0
DICTIONARY
  5
110
102
{ACAD_REACTORS
330
C
102
}
330
C
100
AcDbDictionary
281
     1
  0
DICTIONARY
  5
69
102
{ACAD_REACTORS
330
C
102
}
330
C
100
AcDbDictionary
281
     1
  3
Standard
350
6A
  0
DICTIONARY
  5
2A
102
{ACAD_REACTORS
330
C
102
}
330
C
100
AcDbDictionary
281
     1
  3
2dWireframe
350
2F
  3
Basic
350
32
  3
Brighten
350
36
  3
ColorChange
350
3A
  3
Conceptual
350
34
  3
Dim
350
35
  3
EdgeColorOff
350
3D
  3
Facepattern
350
39
  3
Flat
350
2B
  3
FlatWithEdges
350
2C
  3
Gouraud
350
2D
  3
GouraudWithEdges
350
2E
  3
Hidden
350
31
  3
JitterOff
350
3B
  3
Linepattern
350
38
  3
OverhangOff
350
3C
  3
Realistic
350
33
  3
Shaded
350
42
  3
Shaded with edges
350
41
  3
Shades of Gray
350
3E
  3
Sketchy
350
3F
  3
Thicken
350
37
  3
Wireframe
350
30
  3
X-Ray
350
40
  0
XRECORD
  5
10C
102
{ACAD_REACTORS
330
C
102
}
330
C
100
AcDbXrecord
280
     1
 90
        1
330
6A
  0
DICTIONARY
  5
107
102
{ACAD_REACTORS
330
C
102
}
330
C
100
AcDbDictionary
281
     1
  3
CANNOSCALE
350
108
  3
CMLEADERSTYLE
350
10E
  3
CTABLESTYLE
350
10D
  3
SECTIONTHICKNESSINC
350
111
  0
GROUP
  5
91
102
{ACAD_REACTORS
330
D
102
}
330
D
100
AcDbGroup
300

 70
     0
 71
     0
  0
GROUP
  5
92
102
{ACAD_REACTORS
330
D
102
}
330
D
100
AcDbGroup
300

 70
     0
 71
     0
  0
GROUP
  5
93
102
{ACAD_REACTORS
330
D
102
}
330
D
100
AcDbGroup
300

 70
     0
 71
     0
340
95
340
96
340
97
340
98
340
99
340
9A
340
A4
340
A5
340
BF
340
C7
340
CF
340
D7
340
DF
340
E7
340
EF
340
F7
340
FF
  0
GROUP
  5
B9
102
{ACAD_REACTORS
330
D
102
}
330
D
100
AcDbGroup
300

 70
     0
 71
     0
340
BA
340
BB
340
BC
340
BE
  0
LAYOUT
  5
1E
102
{ACAD_REACTORS
330
1A
102
}
330
1A
100
AcDbPlotSettings
  1

  2
none_device
  4

  6

 40
0.0
 41
0.0
 42
0.0
 43
0.0
 44
0.0
 45
0.0
 46
0.0
 47
0.0
 48
0.0
 49
0.0
140
0.0
141
0.0
142
1.0
143
1.0
 70
   688
 72
     1
 73
     0
 74
     5
  7

 75
    16
 76
     0
 77
     2
 78
   300
147
1.0
148
0.0
149
0.0
100
AcDbLayout
  1
Layout1
 70
     1
 71
     1
 10
25.84
 20
53.25
 11
336.125
 21
110.0
 12
0.0
 22
0.0
 32
0.0
 14
25.84
 24
53.25
 34
0.0
 15
336.125
 25
110.0
 35
0.0
146
0.0
 13
0.0
 23
0.0
 33
0.0
 16
1.0
 26
0.0
 36
0.0
 17
0.0
 27
1.0
 37
0.0
 76
     0
330
1B
  0
LAYOUT
  5
26
102
{ACAD_REACTORS
330
1A
102
}
330
1A
100
AcDbPlotSettings
  1

  2
none_device
  4

  6

 40
0.0
 41
0.0
 42
0.0
 43
0.0
 44
0.0
 45
0.0
 46
0.0
 47
0.0
 48
0.0
 49
0.0
140
0.0
141
0.0
142
1.0
143
1.0
 70
   688
 72
     1
 73
     0
 74
     5
  7

 75
    16
 76
     0
 77
     2
 78
   300
147
1.0
148
0.0
149
0.0
100
AcDbLayout
  1
Layout2
 70
     1
 71
     2
 10
0.0
 20
0.0
 11
0.0
 21
0.0
 12
0.0
 22
0.0
 32
0.0
 14
0.0
 24
0.0
 34
0.0
 15
0.0
 25
0.0
 35
0.0
146
0.0
 13
0.0
 23
0.0
 33
0.0
 16
1.0
 26
0.0
 36
0.0
 17
0.0
 27
1.0
 37
0.0
 76
     0
330
23
  0
LAYOUT
  5
22
102
{ACAD_REACTORS
330
1A
102
}
330
1A
100
AcDbPlotSettings
  1

  2
none_device
  4
Letter_(8.50_x_11.00_Inches)
  6

 40
6.35
 41
6.35
 42
6.35000508
 43
6.35000508
 44
215.9
 45
279.4
 46
0.0
 47
0.0
 48
0.0
 49
0.0
140
0.0
141
0.0
142
1.0
143
1.0
 70
  1712
 72
     1
 73
     0
 74
     0
  7

 75
     0
 76
     0
 77
     2
 78
   300
147
1.0
148
0.0
149
0.0
100
AcDbLayout
  1
Model
 70
     1
 71
     0
 10
25.84
 20
53.25
 11
336.125
 21
110.0
 12
0.0
 22
0.0
 32
0.0
 14
25.84
 24
53.25
 34
0.0
 15
336.125
 25
110.0
 35
0.0
146
0.0
 13
0.0
 23
0.0
 33
0.0
 16
1.0
 26
0.0
 36
0.0
 17
0.0
 27
1.0
 37
0.0
 76
     0
330
1F
331
29
  0
MATERIAL
  5
45
102
{ACAD_REACTORS
330
43
102
}
330
43
100
AcDbMaterial
  1
ByBlock
 72
     1
 94
      127
  0
MATERIAL
  5
44
102
{ACAD_REACTORS
330
43
102
}
330
43
100
AcDbMaterial
  1
ByLayer
 72
     1
 94
      127
  0
MATERIAL
  5
46
102
{ACAD_REACTORS
330
43
102
}
330
43
100
AcDbMaterial
  1
Global
 72
     1
 94
      127
  0
MLEADERSTYLE
  5
6C
102
{ACAD_REACTORS
330
6B
102
}
330
6B
100
AcDbMLeaderStyle
170
     2
171
     1
172
     0
 90
        2
 40
0.0
 41
0.0
173
     1
 91
-1056964608
340
14
 92
       -2
290
     1
 42
2.0
291
     1
 43
8.0
  3
Standard
341
0
 44
4.0
300

342
11
174
     1
178
     6
175
     1
176
     0
 93
-1056964608
 45
4.0
292
     0
297
     0
 46
4.0
343
0
 94
-1056964608
 47
1.0
 49
1.0
140
1.0
293
     1
141
0.0
294
     1
177
     0
142
1.0
295
     0
296
     0
143
3.75
1001
ACAD_MLEADERVER
1070
     2
  0
MLINESTYLE
  5
18
102
{ACAD_REACTORS
330
17
102
}
330
17
100
AcDbMlineStyle
  2
Standard
 70
     0
  3

 62
   256
 51
90.0
 52
90.0
 71
     2
 49
0.5
 62
   256
  6
BYLAYER
 49
-0.5
 62
   256
  6
BYLAYER
  0
ACDBPLACEHOLDER
  5
F
102
{ACAD_REACTORS
330
E
102
}
330
E
  0
SCALE
  5
48
102
{ACAD_REACTORS
330
47
102
}
330
47
100
AcDbScale
 70
     0
300
1:1
140
1.0
141
1.0
290
     1
  0
SCALE
  5
49
102
{ACAD_REACTORS
330
47
102
}
330
47
100
AcDbScale
 70
     0
300
1:2
140
1.0
141
2.0
290
     0
  0
SCALE
  5
4A
102
{ACAD_REACTORS
330
47
102
}
330
47
100
AcDbScale
 70
     0
300
1:4
140
1.0
141
4.0
290
     0
  0
SCALE
  5
4B
102
{ACAD_REACTORS
330
47
102
}
330
47
100
AcDbScale
 70
     0
300
1:5
140
1.0
141
5.0
290
     0
  0
SCALE
  5
4C
102
{ACAD_REACTORS
330
47
102
}
330
47
100
AcDbScale
 70
     0
300
1:8
140
1.0
141
8.0
290
     0
  0
SCALE
  5
4D
102
{ACAD_REACTORS
330
47
102
}
330
47
100
AcDbScale
 70
     0
300
1:10
140
1.0
141
10.0
290
     0
  0
SCALE
  5
4E
102
{ACAD_REACTORS
330
47
102
}
330
47
100
AcDbScale
 70
     0
300
1:16
140
1.0
141
16.0
290
     0
  0
SCALE
  5
4F
102
{ACAD_REACTORS
330
47
102
}
330
47
100
AcDbScale
 70
     0
300
1:20
140
1.0
141
20.0
290
     0
  0
SCALE
  5
50
102
{ACAD_REACTORS
330
47
102
}
330
47
100
AcDbScale
 70
     0
300
1:30
140
1.0
141
30.0
290
     0
  0
SCALE
  5
51
102
{ACAD_REACTORS
330
47
102
}
330
47
100
AcDbScale
 70
     0
300
1:40
140
1.0
141
40.0
290
     0
  0
SCALE
  5
52
102
{ACAD_REACTORS
330
47
102
}
330
47
100
AcDbScale
 70
     0
300
1:50
140
1.0
141
50.0
290
     0
  0
SCALE
  5
53
102
{ACAD_REACTORS
330
47
102
}
330
47
100
AcDbScale
 70
     0
300
1:100
140
1.0
141
100.0
290
     0
  0
SCALE
  5
54
102
{ACAD_REACTORS
330
47
102
}
330
47
100
AcDbScale
 70
     0
300
2:1
140
2.0
141
1.0
290
     0
  0
SCALE
  5
55
102
{ACAD_REACTORS
330
47
102
}
330
47
100
AcDbScale
 70
     0
300
4:1
140
4.0
141
1.0
290
     0
  0
SCALE
  5
56
102
{ACAD_REACTORS
330
47
102
}
330
47
100
AcDbScale
 70
     0
300
8:1
140
8.0
141
1.0
290
     0
  0
SCALE
  5
57
102
{ACAD_REACTORS
330
47
102
}
330
47
100
AcDbScale
 70
     0
300
10:1
140
10.0
141
1.0
290
     0
  0
SCALE
  5
58
102
{ACAD_REACTORS
330
47
102
}
330
47
100
AcDbScale
 70
     0
300
100:1
140
100.0
141
1.0
290
     0
  0
SCALE
  5
59
102
{ACAD_REACTORS
330
47
102
}
330
47
100
AcDbScale
 70
     0
300
1/128" = 1'-0"
140
0.0078125
141
12.0
290
     0
  0
SCALE
  5
5A
102
{ACAD_REACTORS
330
47
102
}
330
47
100
AcDbScale
 70
     0
300
1/64" = 1'-0"
140
0.015625
141
12.0
290
     0
  0
SCALE
  5
5B
102
{ACAD_REACTORS
330
47
102
}
330
47
100
AcDbScale
 70
     0
300
1/32" = 1'-0"
140
0.03125
141
12.0
290
     0
  0
SCALE
  5
5C
102
{ACAD_REACTORS
330
47
102
}
330
47
100
AcDbScale
 70
     0
300
1/16" = 1'-0"
140
0.0625
141
12.0
290
     0
  0
SCALE
  5
5D
102
{ACAD_REACTORS
330
47
102
}
330
47
100
AcDbScale
 70
     0
300
3/32" = 1'-0"
140
0.09375
141
12.0
290
     0
  0
SCALE
  5
5E
102
{ACAD_REACTORS
330
47
102
}
330
47
100
AcDbScale
 70
     0
300
1/8" = 1'-0"
140
0.125
141
12.0
290
     0
  0
SCALE
  5
5F
102
{ACAD_REACTORS
330
47
102
}
330
47
100
AcDbScale
 70
     0
300
3/16" = 1'-0"
140
0.1875
141
12.0
290
     0
  0
SCALE
  5
60
102
{ACAD_REACTORS
330
47
102
}
330
47
100
AcDbScale
 70
     0
300
1/4" = 1'-0"
140
0.25
141
12.0
290
     0
  0
SCALE
  5
61
102
{ACAD_REACTORS
330
47
102
}
330
47
100
AcDbScale
 70
     0
300
3/8" = 1'-0"
140
0.375
141
12.0
290
     0
  0
SCALE
  5
62
102
{ACAD_REACTORS
330
47
102
}
330
47
100
AcDbScale
 70
     0
300
1/2" = 1'-0"
140
0.5
141
12.0
290
     0
  0
SCALE
  5
63
102
{ACAD_REACTORS
330
47
102
}
330
47
100
AcDbScale
 70
     0
300
3/4" = 1'-0"
140
0.75
141
12.0
290
     0
  0
SCALE
  5
64
102
{ACAD_REACTORS
330
47
102
}
330
47
100
AcDbScale
 70
     0
300
1" = 1'-0"
140
1.0
141
12.0
290
     0
  0
SCALE
  5
65
102
{ACAD_REACTORS
330
47
102
}
330
47
100
AcDbScale
 70
     0
300
1-1/2" = 1'-0"
140
1.5
141
12.0
290
     0
  0
SCALE
  5
66
102
{ACAD_REACTORS
330
47
102
}
330
47
100
AcDbScale
 70
     0
300
3" = 1'-0"
140
3.0
141
12.0
290
     0
  0
SCALE
  5
67
102
{ACAD_REACTORS
330
47
102
}
330
47
100
AcDbScale
 70
     0
300
6" = 1'-0"
140
6.0
141
12.0
290
     0
  0
SCALE
  5
68
102
{ACAD_REACTORS
330
47
102
}
330
47
100
AcDbScale
 70
     0
300
1'-0" = 1'-0"
140
12.0
141
12.0
290
     0
  0
TABLESTYLE
  5
6A
102
{ACAD_REACTORS
330
69
102
}
102
{ACAD_XDICTIONARY
360
109
102
}
330
69
100
AcDbTableStyle
  3
Standard
 70
     0
 71
     0
 40
0.06
 41
0.06
280
     0
281
     0
  7
Standard
140
4.5
170
     2
 62
     0
 63
   257
283
     0
 90
        4
 91
        0
  1

274
    -2
284
     1
 64
     0
275
    -2
285
     1
 65
     0
276
    -2
286
     1
 66
     0
277
    -2
287
     1
 67
     0
278
    -2
288
     1
 68
     0
279
    -2
289
     1
 69
     0
  7
Standard
140
6.0
170
     5
 62
     0
 63
   257
283
     0
 90
        4
 91
        0
  1

274
    -2
284
     1
 64
     0
275
    -2
285
     1
 65
     0
276
    -2
286
     1
 66
     0
277
    -2
287
     1
 67
     0
278
    -2
288
     1
 68
     0
279
    -2
289
     1
 69
     0
  7
Standard
140
4.5
170
     5
 62
     0
 63
   257
283
     0
 90
        4
 91
        0
  1

274
    -2
284
     1
 64
     0
275
    -2
285
     1
 65
     0
276
    -2
286
     1
 66
     0
277
    -2
287
     1
 67
     0
278
    -2
288
     1
 68
     0
279
    -2
289
     1
 69
     0
  0
VISUALSTYLE
  5
2F
102
{ACAD_REACTORS
330
2A
102
}
330
2A
100
AcDbVisualStyle
  2
2dWireframe
 70
     4
 71
     0
 72
     2
 73
     0
 90
        0
 40
0.6
 41
30.0
 62
     5
 63
     7
421
 16777215
 74
     1
 91
        4
 64
     7
 65
   257
 75
     1
175
     1
 42
1.0
 92
        0
 66
   257
 43
1.0
 76
     1
 77
     6
 78
     2
 67
     7
 79
     5
170
     0
171
     0
290
     0
174
     0
 93
        1
 44
0.0
173
     0
291
     0
 45
0.0
  0
VISUALSTYLE
  5
32
102
{ACAD_REACTORS
330
2A
102
}
330
2A
100
AcDbVisualStyle
  2
Basic
 70
     7
 71
     1
 72
     0
 73
     1
 90
        0
 40
0.6
 41
30.0
 62
     5
 63
     7
421
 16777215
 74
     0
 91
        4
 64
     7
 65
   257
 75
     1
175
     1
 42
1.0
 92
        8
 66
     7
 43
1.0
 76
     1
 77
     6
 78
     2
 67
     7
 79
     5
170
     0
171
     0
290
     0
174
     0
 93
        1
 44
0.0
173
     0
291
     1
 45
0.0
  0
VISUALSTYLE
  5
36
102
{ACAD_REACTORS
330
2A
102
}
330
2A
100
AcDbVisualStyle
  2
Brighten
 70
    12
 71
     2
 72
     2
 73
     0
 90
        0
 40
0.6
 41
30.0
 62
     5
 63
     7
421
 16777215
 74
     1
 91
        4
 64
     7
 65
   257
 75
     1
175
     1
 42
1.0
 92
        8
 66
     7
 43
1.0
 76
     1
 77
     6
 78
     2
 67
     7
 79
     5
170
     0
171
     0
290
     0
174
     0
 93
        1
 44
50.0
173
     0
291
     1
 45
0.0
  0
VISUALSTYLE
  5
3A
102
{ACAD_REACTORS
330
2A
102
}
330
2A
100
AcDbVisualStyle
  2
ColorChange
 70
    16
 71
     2
 72
     2
 73
     3
 90
        0
 40
0.6
 41
30.0
 62
     5
 63
     8
421
  8421504
 74
     1
 91
        4
 64
     7
 65
   257
 75
     1
175
     1
 42
1.0
 92
        8
 66
     8
424
  8421504
 43
1.0
 76
     1
 77
     6
 78
     2
 67
     7
 79
     5
170
     0
171
     0
290
     0
174
     0
 93
        1
 44
0.0
173
     0
291
     1
 45
0.0
  0
VISUALSTYLE
  5
34
102
{ACAD_REACTORS
330
2A
102
}
330
2A
100
AcDbVisualStyle
  2
Conceptual
 70
     9
 71
     3
 72
     2
 73
     0
 90
        0
 40
0.6
 41
30.0
 62
     5
 63
     7
421
 16777215
 74
     2
 91
        2
 64
     7
 65
   257
 75
     1
175
     1
 42
179.0
 92
        8
 66
     7
 43
1.0
 76
     1
 77
     6
 78
     2
 67
     7
 79
     3
170
     0
171
     0
290
     0
174
     0
 93
        1
 44
0.0
173
     0
291
     0
 45
0.0
  0
VISUALSTYLE
  5
35
102
{ACAD_REACTORS
330
2A
102
}
330
2A
100
AcDbVisualStyle
  2
Dim
 70
    11
 71
     2
 72
     2
 73
     0
 90
        0
 40
0.6
 41
30.0
 62
     5
 63
     7
421
 16777215
 74
     1
 91
        4
 64
     7
 65
   257
 75
     1
175
     1
 42
1.0
 92
        8
 66
     7
 43
1.0
 76
     1
 77
     6
 78
     2
 67
     7
 79
     5
170
     0
171
     0
290
     0
174
     0
 93
        1
 44
-50.0
173
     0
291
     1
 45
0.0
  0
VISUALSTYLE
  5
3D
102
{ACAD_REACTORS
330
2A
102
}
330
2A
100
AcDbVisualStyle
  2
EdgeColorOff
 70
    22
 71
     2
 72
     2
 73
     0
 90
        0
 40
0.6
 41
30.0
 62
     5
 63
     7
421
 16777215
 74
     1
 91
        4
 64
     7
 65
   257
 75
     1
175
     1
 42
1.0
 92
        8
 66
     7
 43
1.0
 76
     1
 77
     6
 78
     2
 67
     7
 79
     5
170
     0
171
     0
290
     0
174
     0
 93
        1
 44
0.0
173
     0
291
     1
 45
0.0
  0
VISUALSTYLE
  5
39
102
{ACAD_REACTORS
330
2A
102
}
330
2A
100
AcDbVisualStyle
  2
Facepattern
 70
    15
 71
     2
 72
     2
 73
     0
 90
        0
 40
0.6
 41
30.0
 62
     5
 63
     7
421
 16777215
 74
     1
 91
        4
 64
     7
 65
   257
 75
     1
175
     1
 42
1.0
 92
        8
 66
     7
 43
1.0
 76
     1
 77
     6
 78
     2
 67
     7
 79
     5
170
     0
171
     0
290
     0
174
     0
 93
        1
 44
0.0
173
     0
291
     1
 45
0.0
  0
VISUALSTYLE
  5
2B
102
{ACAD_REACTORS
330
2A
102
}
330
2A
100
AcDbVisualStyle
  2
Flat
 70
     0
 71
     2
 72
     1
 73
     1
 90
        2
 40
0.6
 41
30.0
 62
     5
 63
     7
421
 16777215
 74
     0
 91
        0
 64
     7
 65
   257
 75
     1
175
     1
 42
1.0
 92
        8
 66
     7
 43
1.0
 76
     1
 77
     6
 78
     2
 67
     7
 79
     5
170
     0
171
     0
290
     0
174
     0
 93
       13
 44
0.0
173
     0
291
     1
 45
0.0
  0
VISUALSTYLE
  5
2C
102
{ACAD_REACTORS
330
2A
102
}
330
2A
100
AcDbVisualStyle
  2
FlatWithEdges
 70
     1
 71
     2
 72
     1
 73
     1
 90
        2
 40
0.6
 41
30.0
 62
     5
 63
     7
421
 16777215
 74
     1
 91
        0
 64
     7
 65
   257
 75
     1
175
     1
 42
1.0
 92
        0
 66
   257
 43
1.0
 76
     1
 77
     6
 78
     2
 67
     7
 79
     5
170
     0
171
     0
290
     0
174
     0
 93
       13
 44
0.0
173
     0
291
     1
 45
0.0
  0
VISUALSTYLE
  5
2D
102
{ACAD_REACTORS
330
2A
102
}
330
2A
100
AcDbVisualStyle
  2
Gouraud
 70
     2
 71
     2
 72
     2
 73
     1
 90
        2
 40
0.6
 41
30.0
 62
     5
 63
     7
421
 16777215
 74
     0
 91
        0
 64
     7
 65
   257
 75
     1
175
     1
 42
1.0
 92
        0
 66
     7
 43
1.0
 76
     1
 77
     6
 78
     2
 67
     7
 79
     5
170
     0
171
     0
290
     0
174
     0
 93
       13
 44
0.0
173
     0
291
     1
 45
0.0
  0
VISUALSTYLE
  5
2E
102
{ACAD_REACTORS
330
2A
102
}
330
2A
100
AcDbVisualStyle
  2
GouraudWithEdges
 70
     3
 71
     2
 72
     2
 73
     1
 90
        2
 40
0.6
 41
30.0
 62
     5
 63
     7
421
 16777215
 74
     1
 91
        0
 64
     7
 65
   257
 75
     1
175
     1
 42
1.0
 92
        0
 66
   257
 43
1.0
 76
     1
 77
     6
 78
     2
 67
     7
 79
     5
170
     0
171
     0
290
     0
174
     0
 93
       13
 44
0.0
173
     0
291
     1
 45
0.0
  0
VISUALSTYLE
  5
31
102
{ACAD_REACTORS
330
2A
102
}
330
2A
100
AcDbVisualStyle
  2
Hidden
 70
     6
 71
     1
 72
     2
 73
     2
 90
        0
 40
0.6
 41
30.0
 62
     5
 63
     7
421
 16777215
 74
     2
 91
        2
 64
     7
 65
   257
 75
     2
175
     1
 42
40.0
 92
        0
 66
   257
 43
1.0
 76
     1
 77
     6
 78
     2
 67
     7
 79
     3
170
     0
171
     0
290
     0
174
     0
 93
        1
 44
0.0
173
     0
291
     0
 45
0.0
  0
VISUALSTYLE
  5
3B
102
{ACAD_REACTORS
330
2A
102
}
330
2A
100
AcDbVisualStyle
  2
JitterOff
 70
    20
 71
     2
 72
     2
 73
     0
 90
        0
 40
0.6
 41
30.0
 62
     5
 63
     7
421
 16777215
 74
     1
 91
        4
 64
     7
 65
   257
 75
     1
175
     1
 42
1.0
 92
       10
 66
     7
 43
1.0
 76
     1
 77
     6
 78
     2
 67
     7
 79
     5
170
     0
171
     0
290
     0
174
     0
 93
        1
 44
0.0
173
     0
291
     1
 45
0.0
  0
VISUALSTYLE
  5
38
102
{ACAD_REACTORS
330
2A
102
}
330
2A
100
AcDbVisualStyle
  2
Linepattern
 70
    14
 71
     2
 72
     2
 73
     0
 90
        0
 40
0.6
 41
30.0
 62
     5
 63
     7
421
 16777215
 74
     1
 91
        4
 64
     7
 65
   257
 75
     7
175
     7
 42
1.0
 92
        8
 66
     7
 43
1.0
 76
     1
 77
     6
 78
     2
 67
     7
 79
     5
170
     0
171
     0
290
     0
174
     0
 93
        1
 44
0.0
173
     0
291
     1
 45
0.0
  0
VISUALSTYLE
  5
3C
102
{ACAD_REACTORS
330
2A
102
}
330
2A
100
AcDbVisualStyle
  2
OverhangOff
 70
    21
 71
     2
 72
     2
 73
     0
 90
        0
 40
0.6
 41
30.0
 62
     5
 63
     7
421
 16777215
 74
     1
 91
        4
 64
     7
 65
   257
 75
     1
175
     1
 42
1.0
 92
        9
 66
     7
 43
1.0
 76
     1
 77
     6
 78
     2
 67
     7
 79
     5
170
     0
171
     0
290
     0
174
     0
 93
        1
 44
0.0
173
     0
291
     1
 45
0.0
  0
VISUALSTYLE
  5
33
102
{ACAD_REACTORS
330
2A
102
}
330
2A
100
AcDbVisualStyle
  2
Realistic
 70
     8
 71
     2
 72
     3
 73
     0
 90
        2
 40
0.6
 41
30.0
 62
     5
 63
     7
421
 16777215
 74
     0
 91
        0
 64
     7
 65
   257
 75
     1
175
     1
 42
1.0
 92
        8
 66
   257
 43
1.0
 76
     1
 77
     6
 78
     2
 67
     7
 79
     3
170
     0
171
     0
290
     0
174
     0
 93
       13
 44
0.0
173
     0
291
     0
 45
0.0
  0
VISUALSTYLE
  5
42
102
{ACAD_REACTORS
330
2A
102
}
330
2A
100
AcDbVisualStyle
  2
Shaded
 70
    27
 71
     2
 72
     2
 73
     1
 90
        2
 40
0.6
 41
30.0
 62
     5
 63
     7
421
 16777215
 74
     0
 91
        4
 64
     7
 65
   257
 75
     1
175
     1
 42
1.0
 92
        8
 66
   257
 43
1.0
 76
     1
 77
     6
 78
     2
 67
     8
425
  7895160
 79
     3
170
     0
171
     0
290
     0
174
     0
 93
        5
 44
0.0
173
     0
291
     0
 45
0.0
  0
VISUALSTYLE
  5
41
102
{ACAD_REACTORS
330
2A
102
}
330
2A
100
AcDbVisualStyle
  2
Shaded with edges
 70
    26
 71
     2
 72
     2
 73
     1
 90
        2
 40
0.6
 41
30.0
 62
     5
 63
     7
421
 16777215
 74
     1
 91
       10
 64
     7
 65
   257
 75
     2
175
     1
 42
1.0
 92
        8
 66
   257
 43
1.0
 76
     1
 77
     6
 78
     2
 67
     7
 79
     3
170
     0
171
     0
290
     0
174
     0
 93
        5
 44
0.0
173
     0
291
     0
 45
0.0
  0
VISUALSTYLE
  5
3E
102
{ACAD_REACTORS
330
2A
102
}
330
2A
100
AcDbVisualStyle
  2
Shades of Gray
 70
    23
 71
     2
 72
     2
 73
     3
 90
        0
 40
0.6
 41
30.0
 62
     5
 63
     7
421
 16777215
 74
     2
 91
        2
 64
     7
 65
     7
 75
     1
175
     1
 42
40.0
 92
        8
 66
     7
 43
1.0
 76
     1
 77
     6
 78
     2
 67
     7
 79
     3
170
     0
171
     0
290
     0
174
     0
 93
        1
 44
0.0
173
     0
291
     0
 45
0.0
  0
VISUALSTYLE
  5
3F
102
{ACAD_REACTORS
330
2A
102
}
330
2A
100
AcDbVisualStyle
  2
Sketchy
 70
    24
 71
     1
 72
     2
 73
     2
 90
        0
 40
0.6
 41
30.0
 62
     5
 63
     7
421
 16777215
 74
     2
 91
        2
 64
     7
 65
     7
 75
     1
175
     1
 42
40.0
 92
       11
 66
     7
 43
1.0
 76
     1
 77
     6
 78
     2
 67
     7
 79
     6
170
     0
171
     0
290
     0
174
     0
 93
        1
 44
0.0
173
     0
291
     0
 45
0.0
  0
VISUALSTYLE
  5
37
102
{ACAD_REACTORS
330
2A
102
}
330
2A
100
AcDbVisualStyle
  2
Thicken
 70
    13
 71
     2
 72
     2
 73
     0
 90
        0
 40
0.6
 41
30.0
 62
     5
 63
     7
421
 16777215
 74
     1
 91
        4
 64
     7
 65
   257
 75
     1
175
     1
 42
1.0
 92
       12
 66
     7
 43
1.0
 76
     1
 77
     6
 78
     2
 67
     7
 79
     5
170
     0
171
     0
290
     0
174
     0
 93
        1
 44
0.0
173
     0
291
     1
 45
0.0
  0
VISUALSTYLE
  5
30
102
{ACAD_REACTORS
330
2A
102
}
330
2A
100
AcDbVisualStyle
  2
Wireframe
 70
     5
 71
     0
 72
     2
 73
     0
 90
        0
 40
0.6
 41
30.0
 62
     5
 63
     7
421
 16777215
 74
     1
 91
        4
 64
     7
 65
   257
 75
     1
175
     1
 42
1.0
 92
        0
 66
   257
 43
1.0
 76
     1
 77
     6
 78
     2
 67
     7
 79
     3
170
     0
171
     0
290
     0
174
     0
 93
        1
 44
0.0
173
     0
291
     0
 45
0.0
  0
VISUALSTYLE
  5
40
102
{ACAD_REACTORS
330
2A
102
}
330
2A
100
AcDbVisualStyle
  2
X-Ray
 70
    25
 71
     2
 72
     2
 73
     1
 90
        1
 40
0.5
 41
30.0
 62
     5
 63
     7
421
 16777215
 74
     1
 91
        0
 64
     7
 65
   257
 75
     1
175
     1
 42
1.0
 92
        8
 66
     7
 43
1.0
 76
     1
 77
     6
 78
     2
 67
     7
 79
     3
170
     0
171
     0
290
     0
174
     0
 93
       13
 44
0.0
173
     0
291
     0
 45
0.0
  0
DICTIONARYVAR
  5
108
102
{ACAD_REACTORS
330
107
102
}
330
107
100
DictionaryVariables
280
     0
  1
1:1
  0
DICTIONARYVAR
  5
10E
102
{ACAD_REACTORS
330
107
102
}
330
107
100
DictionaryVariables
280
     0
  1
Standard
  0
DICTIONARYVAR
  5
10D
102
{ACAD_REACTORS
330
107
102
}
330
107
100
DictionaryVariables
280
     0
  1
Standard
  0
DICTIONARYVAR
  5
111
102
{ACAD_REACTORS
330
107
102
}
330
107
100
DictionaryVariables
280
     0
  1
6.000000
  0
DICTIONARY
  5
109
330
6A
100
AcDbDictionary
280
     1
281
     1
  3
ACAD_ROUNDTRIP_2008_TABLESTYLE_CELLSTYLEMAP
360
10A
  0
CELLSTYLEMAP
  5
10A
102
{ACAD_REACTORS
330
109
102
}
330
109
100
AcDbCellStyleMap
 90
        3
300
CELLSTYLE
  1
TABLEFORMAT_BEGIN
 90
        5
170
     1
 91
        0
 92
    32768
 62
   257
 93
        1
300
CONTENTFORMAT
  1
CONTENTFORMAT_BEGIN
 90
        0
 91
        0
 92
        4
 93
        0
300

 40
0.0
140
1.0
 94
        5
 62
     0
340
11
144
6.0
309
CONTENTFORMAT_END
171
     1
301
MARGIN
  1
CELLMARGIN_BEGIN
 40
1.5
 40
1.5
 40
1.5
 40
1.5
 40
1.5
 40
1.5
309
CELLMARGIN_END
 94
        6
 95
        1
302
GRIDFORMAT
  1
GRIDFORMAT_BEGIN
 90
        0
 91
        1
 62
     0
 92
       -2
340
14
 93
        0
 40
0.045
309
GRIDFORMAT_END
 95
        2
302
GRIDFORMAT
  1
GRIDFORMAT_BEGIN
 90
        0
 91
        1
 62
     0
 92
       -2
340
14
 93
        0
 40
0.045
309
GRIDFORMAT_END
 95
        4
302
GRIDFORMAT
  1
GRIDFORMAT_BEGIN
 90
        0
 91
        1
 62
     0
 92
       -2
340
14
 93
        0
 40
0.045
309
GRIDFORMAT_END
 95
        8
302
GRIDFORMAT
  1
GRIDFORMAT_BEGIN
 90
        0
 91
        1
 62
     0
 92
       -2
340
14
 93
        0
 40
0.045
309
GRIDFORMAT_END
 95
       16
302
GRIDFORMAT
  1
GRIDFORMAT_BEGIN
 90
        0
 91
        1
 62
     0
 92
       -2
340
14
 93
        0
 40
0.045
309
GRIDFORMAT_END
 95
       32
302
GRIDFORMAT
  1
GRIDFORMAT_BEGIN
 90
        0
 91
        1
 62
     0
 92
       -2
340
14
 93
        0
 40
0.045
309
GRIDFORMAT_END
309
TABLEFORMAT_END
  1
CELLSTYLE_BEGIN
 90
        1
 91
        1
300
_TITLE
309
CELLSTYLE_END
300
CELLSTYLE
  1
TABLEFORMAT_BEGIN
 90
        5
170
     1
 91
        0
 92
        0
 62
   257
 93
        1
300
CONTENTFORMAT
  1
CONTENTFORMAT_BEGIN
 90
        0
 91
        0
 92
        4
 93
        0
300

 40
0.0
140
1.0
 94
        5
 62
     0
340
11
144
4.5
309
CONTENTFORMAT_END
171
     1
301
MARGIN
  1
CELLMARGIN_BEGIN
 40
1.5
 40
1.5
 40
1.5
 40
1.5
 40
1.5
 40
1.5
309
CELLMARGIN_END
 94
        6
 95
        1
302
GRIDFORMAT
  1
GRIDFORMAT_BEGIN
 90
        0
 91
        1
 62
     0
 92
       -2
340
14
 93
        0
 40
0.045
309
GRIDFORMAT_END
 95
        2
302
GRIDFORMAT
  1
GRIDFORMAT_BEGIN
 90
        0
 91
        1
 62
     0
 92
       -2
340
14
 93
        0
 40
0.045
309
GRIDFORMAT_END
 95
        4
302
GRIDFORMAT
  1
GRIDFORMAT_BEGIN
 90
        0
 91
        1
 62
     0
 92
       -2
340
14
 93
        0
 40
0.045
309
GRIDFORMAT_END
 95
        8
302
GRIDFORMAT
  1
GRIDFORMAT_BEGIN
 90
        0
 91
        1
 62
     0
 92
       -2
340
14
 93
        0
 40
0.045
309
GRIDFORMAT_END
 95
       16
302
GRIDFORMAT
  1
GRIDFORMAT_BEGIN
 90
        0
 91
        1
 62
     0
 92
       -2
340
14
 93
        0
 40
0.045
309
GRIDFORMAT_END
 95
       32
302
GRIDFORMAT
  1
GRIDFORMAT_BEGIN
 90
        0
 91
        1
 62
     0
 92
       -2
340
14
 93
        0
 40
0.045
309
GRIDFORMAT_END
309
TABLEFORMAT_END
  1
CELLSTYLE_BEGIN
 90
        2
 91
        1
300
_HEADER
309
CELLSTYLE_END
300
CELLSTYLE
  1
TABLEFORMAT_BEGIN
 90
        5
170
     1
 91
        0
 92
        0
 62
   257
 93
        1
300
CONTENTFORMAT
  1
CONTENTFORMAT_BEGIN
 90
        0
 91
        0
 92
        4
 93
        0
300

 40
0.0
140
1.0
 94
        2
 62
     0
340
11
144
4.5
309
CONTENTFORMAT_END
171
     1
301
MARGIN
  1
CELLMARGIN_BEGIN
 40
1.5
 40
1.5
 40
1.5
 40
1.5
 40
1.5
 40
1.5
309
CELLMARGIN_END
 94
        6
 95
        1
302
GRIDFORMAT
  1
GRIDFORMAT_BEGIN
 90
        0
 91
        1
 62
     0
 92
       -2
340
14
 93
        0
 40
0.045
309
GRIDFORMAT_END
 95
        2
302
GRIDFORMAT
  1
GRIDFORMAT_BEGIN
 90
        0
 91
        1
 62
     0
 92
       -2
340
14
 93
        0
 40
0.045
309
GRIDFORMAT_END
 95
        4
302
GRIDFORMAT
  1
GRIDFORMAT_BEGIN
 90
        0
 91
        1
 62
     0
 92
       -2
340
14
 93
        0
 40
0.045
309
GRIDFORMAT_END
 95
        8
302
GRIDFORMAT
  1
GRIDFORMAT_BEGIN
 90
        0
 91
        1
 62
     0
 92
       -2
340
14
 93
        0
 40
0.045
309
GRIDFORMAT_END
 95
       16
302
GRIDFORMAT
  1
GRIDFORMAT_BEGIN
 90
        0
 91
        1
 62
     0
 92
       -2
340
14
 93
        0
 40
0.045
309
GRIDFORMAT_END
 95
       32
302
GRIDFORMAT
  1
GRIDFORMAT_BEGIN
 90
        0
 91
        1
 62
     0
 92
       -2
340
14
 93
        0
 40
0.045
309
GRIDFORMAT_END
309
TABLEFORMAT_END
  1
CELLSTYLE_BEGIN
 90
        3
 91
        2
300
_DATA
309
CELLSTYLE_END
  0
ENDSEC
  0
EOF
