sep=,
"Part number","Manufacturer (abbreviation)","Manufacturer (full name)","Type number","Order number","Product group","Description 1","Description 2","Description 3","Long description","Link to graphic file","Link to external document 1","Link to external document 2","Link to external document 3","Relative path of the DXF file"
"# "
"#"
"SIE.6ES7215-1AG31-0XB0","SIE","Siemens","6ES7215-1AG31-0XB0","6ES7215-1AG31-0XB0","PLC","CPU 1215C, DC/DC/DC","SIMATIC S7-1200","CPU","SIMATIC S7-1200, CPU 1215C, COMPACT CPU, DC/DC/DC, 2 PROFINET PORT, ONBOARD I/O: 14 DI 24V DC","","http://support.automation.siemens.com","","","dxf/6ES7215-1AG31-0XB0"
